:10000000DBC20000F8C20000F6C20000F4C200002B
:10001000F2C20000F0C20000EEC20000ECC200001C
:10002000EAC20000E8C200004CC50000E4C20000C3
:10003000E2C20000E0C20000DEC20000DCC200003C
:10004000DAC20000D8C20000D6C20000D4C200004C
:10005000D2C20000D0C20000CEC20000CCC200005C
:10006000CAC200000C94C0080C949108C4C20000DD
:10007000C2C20000C0C20000BEC20000BCC200007C
:10008000BAC20000B8C20000B6C20000B4C200008C
:10009000B2C20000B0C200000000000003836BF297
:1000A000F7703BE1F4F350131F979AC71C14F13516
:1000B000E8E7A126EB64CAD4CF58D98ACCDBB27862
:1000C0003828E26B3BAB8999D0CF434DD34C28BF46
:1000D00027BF78AC243C135E6FC75E106C4435E2DA
:1000E00098B765F19B340E037050C4D773D3AF2516
:1000F0008720FF3684A394C4A09F879AA31CEC6832
:1001000057EFBC7B546CD789BF081D5DBC8B76AFA5
:10011000487826BC4BFB4D4EDE8EBD20DD0DD6D281
:1001200029FE86C12A7DED33C11927E7C29A4C15F5
:1001300036691C0635EA77F411D664AA12550F58B1
:10014000E6A65F4BE52534B90E41FE6D0DC2959FC5
:10015000F931C58CFAB2AE7EB149E330B2CA88C279
:100160004639D8D145BAB323AEDE79F7AD5D120575
:1001700059AE42165A2D29E47E113ABA7D92514861
:100180008961015B8AE26AA96186A07D6205CB8FE5
:1001900096F69B9C9575F06EBC1D7B41BF9E10B37F
:1001A0004B6D40A048EE2B52A38AE186A0098A74C9
:1001B00054FADA675779B1957345A2CB70C6C9393D
:1001C0008435992A87B6F2D86CD2380C6F5153FE19
:1001D0009BA203ED9821681FD3DA2551D0594EA375
:1001E00024AA1EB027297542CC4DBF96CFCED46429
:1001F0003B3D847738BEEF851C82FCDB1F019729CD
:10020000EBF2C73AE871ACC80315661C00960DEE18
:10021000F4655DFDF7E6360F6293C6616110AD933C
:1002200095E3FD80966096727D045CA67E873754C8
:100230008A74674789F70CB5ADCB1FEBAE487419CC
:100240005ABB240A59384FF8B25C852CB1DFEEDE78
:10025000452CBECD46AFD53F0D5498710ED7F383D4
:10026000FA24A390F9A7C86212C302B611406944E8
:10027000E5B33957E63052A5C20C41FBC18F2A09BC
:10028000357C7A1A36FF11E8DD9BDB3CDE18B0CEF8
:100290002AEBE0DD29688B2F783BF6827BB89D70D6
:1002A0008F4BCD638CC8A69167AC6C45642F07B7A4
:1002B00090DC57A4935F3C56B7632F08B4E044FA30
:1002C000401314E943907F1BA8F4B5CFAB77DE3D14
:1002D0005F848E2E5C07E5DC17FCA892147FC36058
:1002E000E08C9373E30FF881086B32550BE859A744
:1002F000FF1B09B4FC986246D8A47118DB271AEAE0
:100300002FD44AF92C57210BC733EBDFC4B0802D13
:100310003043D03E33C0BBCCA6B54BA2A53620504F
:1003200051C5704352461BB1B922D165BAA1BA97E3
:100330004E52EA844DD1817669ED92286A6EF9DADF
:100340009E9DA9C99D1EC23B767A08EF75F9631D73
:10035000810A330E828958FCC97215B2CAF17E40F7
:100360003E022E533D8145A1D6E58F75D566E487C3
:100370002195B4942216DF66062ACC3805A9A7CAAF
:10038000F15AF7D9F2D99C2B19BD56FF1A3E3D0DF3
:10039000EECD6D1EED4E06ECC4268DC3C7A5E6312D
:1003A0003356B62230D5DDD0DBB11704D8327CF617
:1003B0002CC12CE52F4247170B7E544908FD3FBB4B
:1003C000FC0E6FA8FF8D045A14E9CE8E176AA57C27
:1003D000E399F56FE01A9E9DABE1D3D3A862B821F3
:1003E0005C91E8325F1283C0B4764914B7F522E617
:1003F000430672F54085190764B90A59673A61AB3B
:1004000093C931B8904A5A4A7B2E909E78ADFB6CC6
:100410008C5EAB7F8FDDC08D1AA830E3192B5B118A
:10042000EDD80B02EE5B60F0053FAA2406BCC1D6F6
:10043000F24F91C5F1CCFA37D5F0E969D673829BBA
:100440002280D2882103B97ACA6773AEC9E4185CE6
:100450003D17484F3E9423BD756F6EF376EC050152
:10046000821F5512819C3EE06AF8F434697B9FC676
:100470009D88CFD59E0BA427BA37B779B9B4DC8B4A
:100480004D478C984EC4E76AA5A02DBEA623464CC6
:1004900052D0165F51537DAD05010905A10115002C
:1004A000250135004501750195100509190129102F
:1004B000810205012507463B017504950165140974
:1004C00039814265009501810126FF0046FF000940
:1004D000300931093209357508950481020600FF9B
:1004E0000920950181020A212695089102C0120176
:1004F0000002000000400D0F920000010102000107
:100500000902290001010080FA0904000002030029
:1005100000000921110100012256000705020340D5
:10052000000807058103400008040309041C034870
:10053000004F0052004900200043004F002E002CC5
:10054000004C00540044002E000000240350004FD3
:10055000004B004B0045004E00200043004F004E72
:1005600000540052004F004C004C00450052000067
:1005700000D5738162EED5E1EB87FB3290FD4C66CE
:10058000EF8B83F4D8CD3598F89A0708C5E3DEEFF2
:1005900034208E99125EC41094D3948A0D8A77CD3C
:1005A000128360E601000102000102000102030063
:1005B000000001010102020211241FBECFEFD0E2B0
:1005C000DEBFCDBF11E0A0E0B1E0E0E4FDE300E07C
:1005D0000BBF02C007900D92A435B107D9F712E006
:1005E000A4E5B1E001C01D92AA36B107E1F70E946F
:1005F0003B130C949E1E04CD882311F05E9A08953F
:100600005E980895569A80E0F7CF9C0140910C02C5
:1006100050910D024617570718F4F90190E03DC0BC
:100620006115710511F0AB01F8CF8091E8008E776C
:100630008093E80040E050E0F0CF809105028823ED
:1006400009F441C0853009F440C08091E80083FD81
:100650003EC08091E80082FD30C08091E80080FFBC
:100660001CC02091F2003091F30007C0819180936B
:10067000F100415050402F5F3F4F4115510519F097
:100680002034310598F390E02034310509F491E0ED
:100690008091E8008E778093E8004115510569F656
:1006A000992359F60AC080910502882361F08530AC
:1006B00061F08091E80083FD0AC08091E80082FF2C
:1006C000F2CF80E0089582E0089583E0089581E00C
:1006D00008959C0140910C0250910D024617570756
:1006E00018F4F90190E03EC06115710511F0AB01FD
:1006F000F8CF8091E8008E778093E80040E050E0EA
:10070000F0CF80910502882309F442C0853009F4B6
:1007100041C08091E80083FD3FC08091E80082FDE8
:1007200031C08091E80080FF1DC02091F20030911F
:10073000F30008C084918093F100319641505040FD
:100740002F5F3F4F4115510519F02034310590F3CB
:1007500090E02034310509F491E08091E8008E7733
:100760008093E8004115510561F6992351F60AC0BE
:1007700080910502882361F0853061F08091E80066
:1007800083FD0AC08091E80082FFF2CF80E00895E7
:1007900082E0089583E0089581E00895BF92CF92AA
:1007A000DF92EF92FF920F931F93CF93DF93182F57
:1007B000092F7B016A01EFD0B82E8823B1F5812F74
:1007C000902F9C01E901C114D10439F0F601808118
:1007D0009181E81AF90AC80FD91F00E010E022C081
:1007E0008091E80085FD16C08091E8008B778093AA
:1007F000E800A2D3C114D10449F0F60180819181AF
:10080000800F911F9183808385E010C0C4D088231E
:1008100049F00CC08091F10089930894E108F10837
:100820000F5F1F4FE114F104D9F68B2DDF91CF91AB
:100830001F910F91FF90EF90DF90CF90BF900895A0
:10084000BF92CF92DF92EF92FF920F931F93CF93BD
:10085000DF93182F092F7B016A019DD0B82E8823C2
:10086000B1F5812F902F9C01E901C114D10439F019
:10087000F60180819181E81AF90AC80FD91F00E0BA
:1008800010E022C08091E80085FD16C08091E8004C
:100890008E778093E80050D3C114D10449F0F6015B
:1008A00080819181800F911F9183808385E010C0AA
:1008B00072D0882349F00CC089918093F10008948C
:1008C000E108F1080F5F1F4FE114F104D9F68B2DF9
:1008D000DF91CF911F910F91FF90EF90DF90CF901C
:1008E000BF900895382F282F2EC0822F8F708093AD
:1008F000E900231721F4762F942F50E006C0709161
:10090000EC009091ED005091F00091FF1BC08091A0
:10091000EB008E7F8093EB008091ED008D7F8093C4
:10092000ED008091EB0081608093EB007093EC0010
:100930009093ED005093F0008091EE0087FD02C08F
:1009400080E008952F5F273080F23F703093E900F8
:1009500081E008958091060288239CF404C0809170
:1009600005028823B9F08091E80082FFF8CF8091DA
:10097000E8008B778093E800089580910502882332
:1009800049F08091E80080FFF8CF8091E8008E77F1
:100990008093E80008954091E4005091E50024E63A
:1009A0008091EC0080FF24C08091E80080FD1EC093
:1009B00080910502882311F482E00895853011F4B6
:1009C00083E008958091EB0085FF02C081E00895E7
:1009D0008091E4009091E5008417950709F32223A4
:1009E00011F484E008952150AC01DACF80E008953D
:1009F0008091E80082FFDCCFF9CFEF92FF920F9356
:100A00001F9352D059D008ED10E0F80180818F7704
:100A1000808380818068808380818F7D8083E7ED03
:100A2000F0E080818068808319BC109205021092EA
:100A30000102109203021092020280EEE82EF12CC5
:100A4000F70180818B7F8083F801808181608083C2
:100A500080E060E042E346DFE1EEF0E080818E7FFF
:100A60008083E2EEF0E08081816080838081886015
:100A70008083F70180818E7F8083F801808180618F
:100A800080831F910F91FF90EF900895E8EDF0E0C3
:100A900080818F7E8083E7EDF0E0808181608083BC
:100AA00081E080930402A9CFE8EDF0E080818C7FA3
:100AB00080831092E20008951092DA001092E10013
:100AC00008951F920F920FB60F920BB60F9211243A
:100AD0002F933F934F935F936F937F938F939F9346
:100AE000AF93BF93EF93FF938091E10082FF0AC021
:100AF0008091E20082FF06C08091E1008B7F8093AD
:100B0000E10019D28091DA0080FF1DC08091D800E9
:100B100080FF19C08091DA008E7F8093DA00809187
:100B2000D90080FF0CC084E189BD86E189BD09B48C
:100B300000FEFDCF81E08093050296D304C019BC6E
:100B40001092050292D38091E10080FF18C080913D
:100B5000E20080FF14C08091E2008E7F8093E2006B
:100B60008091E20080618093E2008091D8008062F1
:100B70008093D80019BC85E080930502DCD1809178
:100B8000E10084FF2FC08091E20084FF2BC084E14C
:100B900089BD86E189BD09B400FEFDCF8091D800F2
:100BA0008F7D8093D8008091E1008F7E8093E1005B
:100BB0008091E2008F7E8093E2008091E20081606C
:100BC0008093E20080910102882311F084E007C045
:100BD0008091E30087FD02C081E001C083E0809343
:100BE0000502A9D18091E10083FF22C08091E2003B
:100BF00083FF1EC08091E100877F8093E10082E047
:100C000080930502109201028091E1008E7F809313
:100C1000E1008091E2008E7F8093E2008091E2000B
:100C200080618093E20080E060E042E35BDE83D19C
:100C3000FF91EF91BF91AF919F918F917F916F91B4
:100C40005F914F913F912F910F900BBE0F900FBE70
:100C50000F901F9018951F93DF93CF93CDB7DEB7FA
:100C6000AC970FB6F894DEBF0FBECDBFE6E0F2E062
:100C70008091F100819322E0EE30F207C9F7F6D2BD
:100C80008091E80083FF3FC1809106023091070206
:100C9000353009F48DC0363040F43130E1F1313077
:100CA00070F0333009F02FC136C0383009F4FDC080
:100CB000393009F40CC1363009F025C19CC08038A8
:100CC00021F0823809F01FC108C090910202809182
:100CD00003028823B1F0926014C080910A028F70E1
:100CE000873008F010C18093E9008091EB0090E01C
:100CF00025E0969587952A95E1F7982F91701092A7
:100D0000E9008091E800877F8093E8009093F100EC
:100D10001092F100D5C0882319F0823009F0F3C099
:100D200090E08F719070009721F0029709F0EBC06E
:100D30000CC080910802813009F0E5C010920302D6
:100D4000333081F5809303022DC0809108028823FF
:100D500049F520910A022F70822F8150863008F0C9
:100D6000D2C02093E9008091EB0080FF1BC033309C
:100D700021F48091EB00806213C08091EB008061D0
:100D80008093EB0081E090E002C0880F991F2A95C4
:100D9000E2F78093EA001092EA008091EB0088600D
:100DA0008093EB001092E9008091E800877F8BC070
:100DB000882309F0A8C0109108021F778091E300F2
:100DC0008078812B8093E3008091E800877F809377
:100DD000E800C0DD8091E80080FFFCCF8091E30057
:100DE00080688093E300112311F482E001C083E066
:100DF0008093050288C08058823008F084C08091BA
:100E000008029091090223E08C3D920709F033C05B
:100E100083E08C838AE28B837FB7F894DE0115969A
:100E20006EE040E050E011E2E62FF0E01093570052
:100E3000849140FF03C082958F706F5F8F70282F61
:100E400030E08A3018F0C901C79602C0C901C096C7
:100E50008D939D934F5F5F4F4431510529F77FBFBD
:100E60008091E800877F8093E800CE0103966AE2D4
:100E700070E0CBDB14C060910A0270910B02AE01EE
:100E80004F5F5F4FA8D1BC01009709F43CC080912F
:100E9000E800877F8093E80089819A811ADC80913D
:100EA000E8008B778093E8002EC0803861F5809150
:100EB000E800877F8093E800809101028093F10031
:100EC0008091E8008E778093E80044DD1CC0882381
:100ED000D1F4909108029230B0F48091E800877FBD
:100EE0008093E8009093010235DD80910102882310
:100EF00031F48091E30087FD02C081E001C084E00D
:100F00008093050222D28091E80083FF0AC080917D
:100F1000E800877F8093E8008091EB0080628093F7
:100F2000EB00AC960FB6F894DEBF0FBECDBFCF91ED
:100F3000DF911F91089508951F93809105028823E2
:100F400071F01091E9008091EC001092E90080911D
:100F5000E80083FF01C07FDE1F701093E9001F913E
:100F6000089581E049CB4ECB08956F927F928F9286
:100F70009F92AF92BF92CF92DF92EF92FF920F9328
:100F80001F93DF93CF9300D000D0CDB7DEB77B01A6
:100F90008C014A015901CC24DD243E010894611CD6
:100FA000711C20C0F401EC0DFD1D60816E2570E008
:100FB000660F771F660F771F68567F4FC30144E0A7
:100FC00050E00E948C1EEF2CF02E012F11278981FA
:100FD0009A81AB81BC81E826F9260A271B27089451
:100FE000C11CD11CCA14DB04E8F2B701C8010F9080
:100FF0000F900F900F90CF91DF911F910F91FF9065
:10100000EF90DF90CF90BF90AF909F908F907F90A8
:101010006F900895EF92FF920F931F937C018B01C5
:10102000045010406FEF7FEF8FEF9FEFA701980103
:101030009CDF0E0D1F1DF8016083718382839383F3
:101040001F910F91FF90EF9008959B01AC01F894D0
:1010500060E079E08DE390E00E946A1E215030400C
:101060004040504056954795379527953093CD0091
:101070002093CC0082E08093C80088E98093C90067
:1010800086E08093CA001092670180916701809387
:1010900066011092B1018091B1018093B001789402
:1010A0000895909166019F5F923108F090E08091E1
:1010B000670120E0891321E0822F0895282F909165
:1010C00066019F5F923108F090E080916701891777
:1010D000E1F3E92FF0E0EC5AFE4F20839093660194
:1010E00088EB8093C90008959091B0018091B1017F
:1010F00020E0981321E0822F08959091B001809113
:10110000B1019817D1F39091B1019F5F983408F025
:1011100090E0E92FF0E0E859FE4F80819093B10113
:1011200008951F920F920FB60F920BB60F921124D3
:101130008F939F93EF93FF93909166018091670146
:10114000981721F488E98093C9000FC09091670136
:101150009F5F923108F090E0E92FF0E0EC5AFE4FEB
:1011600080818093CE0090936701FF91EF919F91D2
:101170008F910F900BBE0F900FBE0F901F90189580
:101180001F920F920FB60F920BB60F9211242F934E
:101190008F939F93EF93FF932091CE009091B00196
:1011A0009F5F983408F090E08091B101981739F072
:1011B000E92FF0E0E859FE4F20839093B001FF91B2
:1011C000EF919F918F912F910F900BBE0F900FBEBB
:1011D0000F901F901895DA019330B1F0943028F4F5
:1011E000913041F0923079F50AC0913211F192328A
:1011F00051F524C0EEEEF4E022E130E028C0E0E05A
:10120000F5E029E230E023C0813049F0813018F068
:101210008230C9F40AC0E9E2F5E0849103C0EDE24E
:10122000F5E08491282F30E012C0EBE4F5E08491E2
:10123000F9CFE2E1F5E029E030E009C0E8E9F4E0C7
:1012400026E530E004C0E0E0F0E020E030E0ED939F
:10125000FC93C90108956091B2017091B30180912E
:10126000B4019091B501089508950895089564CE4C
:1012700008950F931F93DF93CF93CDB7DEB72F97CA
:101280000FB6F894DEBF0FBECDBF288739874A87D7
:101290005B876C877D878E879F878091050284306E
:1012A00009F047C082E08093E9008091E80082FF66
:1012B00014C08091E80085FF0BC08E010F5F1F4FA7
:1012C000C80167E070E040E050E068DA8823C1F7C9
:1012D0008091E8008B778093E80081E08093E900BB
:1012E0008091E80080FF25C08E01085F1F4FC80174
:1012F00068E070E040E050E0A3DA8823C1F7809115
:10130000E8008E778093E8008091B2019091B3015C
:10131000A091B401B091B5010196A11DB11D8093BA
:10132000B2019093B301A093B401B093B50181E0F1
:1013300001C080E02F960FB6F894DEBF0FBECDBF80
:10134000CF91DF911F910F91089582E060EC42E30D
:10135000C9DA81E061EC42E3C5CA9091BB0180919A
:10136000BC01891719F420E030E010C0892F90E00B
:1013700083709070880F991F9C0143E0220F331FE8
:101380004A95E1F7281B390B225F3D4FC9010895AB
:101390000F931F93CF93DF938091BB0190E08370F5
:1013A0009070880F991FFC0163E0EE0FFF1F6A9594
:1013B000E1F7E81BF90BE25FFD4F8DEE808385E4DA
:1013C00081838F010E5F1F4F82819381A481B5813C
:1013D000E8018C839D83AE83BF8380913D01909112
:1013E0003E01A0913F01B091400182839383A48389
:1013F000B5830196A11DB11D80933D0190933E01DF
:10140000A0933F01B093400126DFF8016087718708
:10141000828793879091BB018091BC01891719F055
:101420009F5F9093BB01DF91CF911F910F91089522
:10143000CF93DF93EC010FDF6093B6017093B70198
:101440008093B8019093B9016091BA018091BB017A
:10145000861701F1862F90E083709070FC01B3E055
:10146000EE0FFF1FBA95E1F7E81BF90BEE0FFF1F18
:10147000E05FFD4F288139814A815B8180819181C4
:10148000A281B381281739074A075B0719F46F5FF8
:101490006093BA01DF91CF910895481711F480E06D
:1014A0000895842F1DD181E008950F931F938C011F
:1014B0008091BB018093BC01A4D481E09DD8F80148
:1014C0006081718182819381A9D01F910F910895CC
:1014D000FC012091BC01622F70E08091BA01AB0148
:1014E000481B51094430510514F080E008954081B3
:1014F000409544502F5F2093BC01CB0183709070C6
:10150000880F991F9C0153E0220F331F5A95E1F772
:10151000281B390B225F3D4FC901BF0150E00E94DB
:10152000951E81E008959091BB018091BA019817B2
:1015300009F440C02091BD01291721F12F5F2093AC
:10154000BD01215030E023703070220F331FC901DC
:1015500073E0880F991F7A95E1F7821B930B825FE6
:101560009D4F84D19091BD018091BB01981701F5E9
:1015700072DE6093B6017093B7018093B8019093C7
:10158000B90116C068DE2091B6013091B7014091D3
:10159000B8015091B901621B730B840B950B605815
:1015A00072408040904030F08091BA018093BD013C
:1015B00081E0089580E008956A5F6093C001962FEE
:1015C0009095909346028093470286E492E070E003
:1015D00021CDEF92FF920F931F937B018C0180919D
:1015E000C001882311F080E014C0E0924802F0921C
:1015F000490200934A0210934B0220934C0230930D
:101600004D0240934E0250934F0284E168E0D4DFD4
:1016100081E01F910F91FF90EF9008959B01AC0125
:101620008091C001882311F080E008952093480242
:101630003093490240934A0250934B0281E164E0A7
:10164000BBDF81E008959B01AC018091C00188233C
:1016500011F080E0089520934802309349024093AE
:101660004A0250934B0280E164E0A6DF81E00895D6
:101670009C018091C001882311F080E0089530938F
:1016800049022093480287E062E096DF81E00895F6
:10169000609348027093490280934A0290934B02F0
:1016A00086E064E089DF81E00895609348027093EA
:1016B000490280934A0290934B0285E064E07CDF0C
:1016C00081E008958093480283E061E075DF81E066
:1016D00008958093480282E061E06EDF81E0089522
:1016E0008093480281E061E067DF81E008958091A6
:1016F000C001882311F080E0089580E060E05CDFA5
:1017000081E00895EF92FF920F931F93FB018334C2
:1017100009F452C0843438F4813429F1823418F544
:10172000803439F408C0843409F467C0863409F47D
:1017300071C080E077C0443009F06EC08081918133
:10174000A281B3810196A11DB11D809341019093A7
:101750004201A0934301B093440160817181828171
:1017600093815CDF5EC0443009F056C08EE0809308
:10177000C00181EF8093460284E18093470280811B
:101780009181A281B3818093480290934902A093F2
:101790004A02B0934B0288E091E8A6E7B8E780934D
:1017A0004C0290934D02A0934E02B0934F0286E4F8
:1017B00092E06EE070E01FC0443071F58BE08093E2
:1017C000C00184EF8093460282E1809347028081CA
:1017D0009181A281B3818093480290934902A093A2
:1017E0004A02B0934B028091BE0180934C0286E482
:1017F00092E06BE070E00EDC14C0443069F4E080ED
:10180000F1800281138127DD9B01AC01C801B70182
:10181000E0DE07C0443019F0842F62DF02C0CB0144
:1018200044DE81E01F910F91FF90EF900895833087
:1018300018F4813038F414C0843021F0813161F023
:1018400080E0089582E18093C001E6E4F2E0DF01E8
:101850001D928A95E9F704C0443021F0842F40DFBF
:1018600081E00895CB01E4DD81E008950F931F939B
:10187000FC01208120952093C00106E412E030E0B5
:1018800024503040C801BF01A9010E94951E6091FB
:10189000C001C80170E0BEDB1F910F9108950F9346
:1018A0001F9322DC882319F41092C20168C01091A2
:1018B000C10123DCE12FF0E0E85AFD4F80831F5F78
:1018C0001093C10180915802082F0095113059F5ED
:1018D000882359F41092C1018091C201813009F02E
:1018E00006DF81E08093C2014AC0063010F0033168
:1018F000D0F01092C1018091C201823011F0802F8E
:10190000EFDE82E08093C20139C0EEDB8823B1F1C3
:101910001091C101F2DBE12FF0E0E85AFD4F808326
:101920001F5F1093C1012091C101201770F330E0B7
:10193000245030406FEF7FEF8FEF9FEF48E552E08C
:1019400014DBE091C101F0E0EC5AFD4F20813181C0
:1019500042815381621773078407950759F01092EB
:10196000C1018091C201823049F0802FB2DE009324
:10197000C00104C01092C20182E001C081E01F9149
:101980000F9108958091C001882389F4089589DB1F
:10199000882311F481E008959091BF01E92FF0E0D0
:1019A000EA5BFD4F80819F5F9093BF0187DB909141
:1019B000BF018091C001981750F31092BF0110929F
:1019C000C00180E00895DF92EF92FF920F931F9382
:1019D000DF93CF930F92CDB7DEB7D4DF882309F022
:1019E000A0C05DDF882311F49EDD9CC0813009F426
:1019F00098C09091C10196501092C101D0905902A7
:101A00008FE38D1548F08D2D6AE572E0492F0FDFC9
:101A1000882309F086C063C0E0905A02F0905B0210
:101A200000915C0210915D022091410130914201D0
:101A300040914301509144018E2D821B181654F49D
:101A4000E0E4DE1639F0F6E4DF1621F0CA01B90150
:101A50002CDE67C08D2D807C803491F58D2D6AE55C
:101A600072E0492F99834EDE9981882369F4E091D1
:101A7000C501F091C601309791F18D2D6AE572E0B4
:101A8000492F0995882359F1809141019091420194
:101A9000A0914301B0914401E816F9060A071B071B
:101AA00009F03FC00894E11CF11C011D111DE092DA
:101AB0004101F0924201009343011093440131C06F
:101AC000E216F3060407150721F0C801B701BBDDD4
:101AD00028C08091C7019091C801892B19F48D2DE0
:101AE000F1DD1FC088E592E0F3DC8823B9F0C8017E
:101AF000B701A9DD8091410190914201A09143017C
:101B0000B09144010196A11DB11D809341019093B4
:101B10004201A0934301B093440103C0C801B7013F
:101B2000B7DD81E00F90CF91DF911F910F91FF9072
:101B3000EF90DF900895EF92FF920F931F93209103
:101B40004501309146014091470150914801DA0129
:101B5000C9016DE0880F991FAA1FBB1F6A95D1F7B5
:101B600082279327A427B5277C018D0121E11695B3
:101B70000795F794E7942A95D1F7E826F9260A27DE
:101B80001B27A801970185E0220F331F441F551F13
:101B90008A95D1F72E253F254027512720934501CF
:101BA000309346014093470150934801B901CA015F
:101BB0001F910F91FF90EF900895FC01DB011182BE
:101BC00010821D921C92FA0110820895089590E0EF
:101BD000FC01EF58FA4FE49123E3629FB001112416
:101BE000680F791FE62787EC90E0E89F802D11248D
:101BF00008951F93CF93DF93CDECD1E010E0812FB8
:101C00006091CC01E4DF89931F5F1333C1F7DF914B
:101C1000CF911F910895DF92EF92FF920F931F9340
:101C200093E0899FC0011124F82EE090CC016E2D25
:101C3000CEDFD82E0F2D10E08F2D8F5F6E2DC7DFDA
:101C400003531E4FF8019181582F592740E02081FE
:101C50002D2530E0242B352BC9011F910F91FF90CA
:101C6000EF90DF9008950F931F9393E0899F800179
:101C700011240E5F802F6091CC01A9DFEDECF1E023
:101C8000E00FF11D9081892790E01F910F91089539
:101C90001F93182FC0DF892B19F080E090E009C056
:101CA000812FE1DF20E0892B09F021E081E0282766
:101CB000822F1F910895DF92EF92FF920F931F934F
:101CC000F62EE72E93E0899FC0011124D82E082F0D
:101CD00010E06091CC017BDF03531E4FF826F80122
:101CE000F0828D2D8F5F6091CC0171DFE826F801C5
:101CF000E1821F910F91FF90EF90DF900895FF9286
:101D00000F931F93F62E93E0899F800111240E5F9D
:101D1000802F6091CC015BDFEDECF1E0E00FF11D75
:101D2000F826F0821F910F91FF900895EF92FF9295
:101D30000F931F93CF93DF938091CB01882309F4F6
:101D40003BC000914B0110914C01C0E0D0E071E02C
:101D5000E72EF12C8C2F5FDF892B59F4C7010C2E55
:101D600002C0880F991F0A94E2F780959095082386
:101D700019232196CE30D10569F710934C010093B9
:101D80004B018EE048DF892B19F488E080934D01E8
:101D90008FE041DF892B29F480E880934E01809306
:101DA0004F0180E138DF892B29F480E880935001CE
:101DB000809351011092CB01DF91CF911F910F9130
:101DC000FF90EF90089580914B0190914C01892BE9
:101DD000A9F480914D01883089F480914E018038BA
:101DE00069F480914F01803849F480915001803826
:101DF00029F490E080915101803809F091E0892F19
:101E000008951F9381E08093C4018093CB0110E07B
:101E1000812F60E070E04FDF812F60E070DF1F5F97
:101E20001131B1F783DF1F910895FF920F931F9334
:101E3000CF93DF937BDF20914B0130914C01409198
:101E40004D0150914E0160914F0170915001809170
:101E50005101909152010DDAF82E09DAFF2011F4A8
:101E600011E037C010E0812FD6DEEC01812FFBDEC0
:101E7000682F8091C401882321F000E0C0E0D0E009
:101E800007C0062F209711F0219702C06111015061
:101E90008091CC018F5F8093CC01812FBE010BDF3D
:101EA000812F602F2CDF8091CC0181508093CC0159
:101EB0008F5F1F5F1131B9F68093CC0181E0809371
:101EC000CB01E091C901F091CA01309709F0099561
:101ED00012E379DD882311F01150D9F78F2DDF91AE
:101EE000CF911F910F91FF900895DF92EF92FF9293
:101EF0000F931F93CF93DF93F82EE62ED42EE90194
:101F00008091C401882319F090DF81E01DC0FF207B
:101F100011F410E101C01FE0812FBADE8823A1F087
:101F2000812FBE01C8DE812F602FE9DEFF2029F05E
:101F3000E0924E01D0924F0104C0E0925001D09245
:101F4000510181E08093CB01DF91CF911F910F91DF
:101F5000FF90EF90DF9008950F931F93CF93DF933F
:101F6000082FEB01142F8091C401882319F05DDF45
:101F700081E00FC08EE08CDE882359F08EE0BE0138
:101F80009ADE8EE0612FBBDE00934D0181E08093ED
:101F9000CB01DF91CF911F910F9108956F927F92A6
:101FA0008F929F92AF92BF92CF92DF92EF92FF9269
:101FB0000F931F93CF93DF936C015B01742E80917D
:101FC000C401882311F031DF44C0C0E0D0E001E05B
:101FD00010E0C8010C2E02C0880F991F0A94E2F786
:101FE0008C219D21892B21F08C2F52DE882391F1A9
:101FF0002196CE30D10569F700914B0110914C012B
:10200000C0E0D0E0E1E08E2E912C66246394740150
:102010000C2E02C0EE0CFF1C0A94E2F7C7018C21C3
:102020009D21892B71F08C2F33DE882351F08C2F6A
:10203000B50141DE8C2F672D62DE0E291F296092CB
:10204000CB012196CE30D10511F710934C010093AE
:102050004B0181E0DF91CF911F910F91FF90EF90A5
:10206000DF90CF90BF90AF909F908F907F906F90B8
:1020700008951F9311E005C010E08091C4018823EA
:1020800061F4D3DE8823C1F3112339F08091C401B8
:10209000882319F481E090E0EBDA1F91089585C25E
:1020A0000895A4C00895EF920F931F93CF93DF93E9
:1020B000982F762F8A01E9014830510510F408E085
:1020C00010E080E0692F472F9801EE2435D1CE0132
:1020D000E8DFDF91CF911F910F91EF900895EF927C
:1020E0000F931F93CF93DF93982F762F8A01E901E7
:1020F0004830510510F408E010E081E0692F472FC7
:102100009801EE2419D1CE01CCDFDF91CF911F9140
:102110000F91EF900895CF93DF939B01EA01653013
:10212000710510F425E030E0B901A90120E072D179
:10213000CE01B7DFDF91CF910895CF93DF939B015D
:10214000EA016530710510F425E030E0B901A9011C
:1021500020E04BD2CE01A5DFDF91CF9108957BC85F
:1021600008950F931F930091490110914A012DED9D
:102170003DE030934A01209349010E94FC021093F4
:102180004A01009349011F910F9108958093BE0168
:1021900084B7877F84BF88E10FB6F894809360008E
:1021A000109260000FBEE1E6F0E080E880831082CC
:1021B00060E072EC81E090E00E9425080E944605F4
:1021C000789417CD813029F0813030F0823051F48D
:1021D00006C020E430E008C024E030E005C020E87C
:1021E00030E002C020E030E0C90108950F931F9352
:1021F000CF93DF938C018091C401882341F4C0E028
:10220000D0E002C036DF2196C017D107D8F3DF91A6
:10221000CF911F910F910895DF92EF92FF920F934C
:102220001F93CF93DF937C01EB01D42E84DC162F18
:1022300013701330D9F300E0113029F0113030F071
:10224000123051F406C0E5E9F1E108C0E1EFF1E137
:1022500005C0EEE8F1E102C0E0E0F0E0C701BE0138
:102260004D2D0995882311F081E008C01F5F1330C0
:1022700009F410E00F5F0330F9F680E0DF91CF91B1
:102280001F910F91FF90EF90DF900895DF92EF92F2
:10229000FF920F931F93CF93DF938C017B01EA0191
:1022A000D22E8091C401882311F009C0E2DEC8015A
:1022B000BE014D2DB1DF8823C9F3C70197DFDF9140
:1022C000CF911F910F91FF90EF90DF90089545E01F
:1022D00050E023E0DBCF0F93FA01022F623071054B
:1022E00091F06330710518F4672B41F00AC0643037
:1022F000710559F06630710521F40AC060E840E0CC
:1023000009C060E806C06FEF04C060E84FEF02C08C
:1023100060E040E89F01E9DD0F910895FC01DB01D9
:10232000242F80E0BF01AD01D6CFFC01DB01242FBB
:1023300081E0BF01AD01CFCFCF92DF92EF92FF924C
:102340000F931F93DF93CF9300D000D00F92CDB7A0
:10235000DEB7C82ED62EF42E3A8329831C830B8336
:10236000ED828091C4018823D9F4E0914901F09174
:102370004A01CE010196BE016D5F7F4FAE014B5FFA
:102380005F4F099501C075DE2B813C818C2D6D2D31
:102390004F2D0D81AADD8823B1F389819A8126DF33
:1023A0000F900F900F900F900F90CF91DF911F9192
:1023B0000F91FF90EF90DF90CF900895EF920F93E1
:1023C0001F938901EE24B8DF1F910F91EF900895BC
:1023D000EF920F931F93EE24AFDF1F910F91EF90B9
:1023E00008958230910581F08330910518F4892B8E
:1023F00039F008C08430910549F0069719F408C0F7
:1024000080E007C088E005C082E003C084E001C02E
:1024100086E0A2CD1F93DF93CF9300D000D00F9220
:10242000CDB7DEB7182F7A8369835C834B832D8306
:102430008091C4018823C9F4E0914901F0914A01D7
:10244000CE010196BE016D5F7F4FAE014B5F5F4FC6
:10245000099501C00EDE6B817C81812F4D817CDD71
:102460008823C1F389819A81C1DE0F900F900F906C
:102470000F900F90CF91DF911F91089545E050E0AC
:1024800023E0C8CF23E0C6CFEF92FF920F931F93B4
:10249000CF93DF937C018091C401882329F510E05C
:1024A000C0E0D0E01EC0112321F0E3DD21961150E1
:1024B00018C041DB162F13701330D9F300E0812FC1
:1024C00081DE65E070E043E069DD882311F013E010
:1024D00008C01F5F133009F410E00F5F033079F775
:1024E00011E0CE15DF05F8F2DF91CF911F910F912A
:1024F000FF90EF900895AF92BF92CF92DF92EF924C
:10250000FF920F931F93CF93DF935C016B017A01CE
:102510008091C401882309F03DC0C0E0D0E002C032
:10252000A8DD2196C50165E070E043E037DD882332
:10253000B9F384E090E05ADE02C09BDD2196C6012B
:1025400065E070E043E02ADD8823B9F3CE15DF05AE
:1025500008F5C50165E070E043E020DD8E010C5F09
:102560001F4FCE15DF05B0F484DD2196C017D107CB
:10257000C1F7C60165E070E043E010DD8E010C5F3D
:102580001F4FCE15DF0530F474DD2196C017D1073B
:10259000C1F7DFCFDF91CF911F910F91FF90EF90A7
:1025A000DF90CF90BF90AF900895EF92FF920F937E
:1025B0001F93CF93DF937C018B018091C40188230B
:1025C00069F4C0E0D0E007C0C70165E070E043E017
:1025D000E5DC4FDD2196C017D107B0F3DF91CF9135
:1025E0001F910F91FF90EF9008950F931F93DF932A
:1025F000CF9300D000D00F92CDB7DEB78C017A8395
:1026000069835C834B832D838091C4018823C9F443
:10261000E0914901F0914A01CE010196BE016D5F42
:102620007F4FAE014B5F5F4F099501C022DD6B818B
:102630007C81C8014D81B2DC8823C1F389819A81F4
:10264000D5DD0F900F900F900F900F90CF91DF91ED
:102650001F910F91089545E050E023E0C6CF23E09D
:10266000C4CF8091C401882311F0089502DDABDB53
:102670008823E1F70895CF93DF930E94B30789E0A1
:1026800085DD84E496E19093C8018093C701809131
:10269000C401882329F01092C40180E00E94FC024A
:1026A000C4DB0E94AD09EC01009789F3BC016E5FA9
:1026B0007F4F488140954650E091C701F091C80195
:1026C00089810995882319F789810E94620BDFCFE0
:1026D000882339F080E090E16AE070E04AE550E05C
:1026E00006C080E090E16AE070E04EEB50E025DD4E
:1026F00080E090E16AE070E040E050E01ECDAF92F3
:10270000BF92CF92DF92EF92FF920F931F938C01B3
:102710007B016A01590188E090E062E370E045DFE7
:1027200009581E4F88E090E064E070E0A801E3DE05
:1027300088E090E0B70139DFC601A6DEC501B1DC53
:102740001F910F91FF90EF90DF90CF90BF90AF90CF
:10275000089588E090E064E670E027DF88E090E08C
:1027600064E070E042E350E0C6DE88E090E060E9BB
:1027700071E01BCF0F931F938C0183E090E091DCFD
:10278000C80160E070E0A3DD1F910F910895DF9212
:10279000EF92FF920F931F93CF93DF93F42E282F86
:1027A00030E0C9018C559A4FFC01949122553A4F63
:1027B000F9018491262F30E0F901EC55FA4FD490BD
:1027C00022553A4FF901E4908C01C0E0D0E02AC0D4
:1027D000E01640F4FF2019F080E090E0CBDF239674
:1027E000015020C00E1558F4FF2019F084E090E04D
:1027F000C1DF23960F5F0330A9F411E013C01D154C
:1028000040F4FF2019F082E090E0B4DF23961F5FD0
:1028100009C0D11638F4FF2019F086E090E0AADF55
:10282000239611501D15A1F60E1591F6CE01DF91DC
:10283000CF911F910F91FF90EF90DF900895EF924D
:10284000FF920F931F93E82EF62E82E090E064E053
:1028500070E03DDD82E090E064E070E038DD84E02F
:1028600090E063E070E033DD84E090E064E070E0ED
:102870002EDD82E090E060E070E029DD84E090E011
:1028800063E070E0E8DE84E090E063E070E0E3DEC7
:10289000FF2011F402E301C001E310E084E090E0C6
:1028A00063E070E014DD1F5F1017C0F3FF2019F420
:1028B0006DE270E002C068E270E082E090E007DD67
:1028C00084E090E063E070E002DD84E090E063E0AB
:1028D00070E0FDDC84E090E063E070E0F8DC84E030
:1028E00090E063E070E0F3DCEE2031F484E090E00F
:1028F0006DE270E0B0DE18C084E090E063E070E06C
:10290000AADEFF2011F40CE001C00AE010E084E030
:1029100090E063E070E0DBDC1F5F1017C0F384E041
:1029200090E060E070E0D3DC1F910F91FF90EF909A
:1029300008950F931F93882319F413E004E002C055
:1029400012E003E084E090E064E170E04AE050E0EF
:1029500086DE80E090E060E070E0B9DC84E090E04A
:10296000612F70E078DE82E090E0602F70E0AFDCF5
:1029700080E090E0612F70E0AADC82E090E0602FC0
:1029800070E0A5DC84E090E060E070E064DE82E06E
:1029900090E0602F70E09BDC82E090E0602F70E0C0
:1029A00096DC82E090E060E070E091DC84E090E012
:1029B00064E170E04AE050E052DE1F910F9108950B
:1029C000FF920F931F93CF93DF93F82E882309F480
:1029D00058C0662311F404E001C003E084E090E0F5
:1029E00064E170E04AE050E03ADE10E0CF2DD0E044
:1029F000219706C084E090E063E070E068DC1F5F30
:102A0000812F90E08C179D07ACF384E090E060E0AC
:102A100070E05DDC84E090E063E070E01CDE82E06A
:102A200090E0602F70E053DC10E006C084E090E09E
:102A300063E070E04CDC1F5F812F90E08C179D07F6
:102A4000ACF384E090E060E070E041DC84E090E092
:102A500063E070E000DE82E090E0602F70E037DC41
:102A600082E090E0602F70E032DC82E090E060E095
:102A700070E02DDC84E090E064E170E04AE050E03A
:102A8000EEDDDF91CF911F910F91FF900895EF92AE
:102A9000FF920F931F93F82E062FE42E80E090E014
:102AA00063E070E014DC10E006C082E090E063E0D8
:102AB00070E00DDC1F5F1F15C0F380E090E063E065
:102AC00070E005DC84E090E068EC70E0C4DDEE20AE
:102AD00071F010E084E090E063E070E0F8DB1F5FED
:102AE0001431C1F780E090E063E070E0F0DB82E356
:102AF00090E07CDB82E063E070E0C0DC06C084E054
:102B000090E063E070E0E3DB01500023C1F71F9128
:102B10000F91FF90EF9008951F93182F862FD8DD07
:102B20008AE590E0BEDA112369F184E06AE070E0A2
:102B3000A5DC80E06AE070E0A1DC60912901709181
:102B40002A0184E090E04AE050E089DD86E06AE016
:102B500070E094DC6091290170912A0184E090E09A
:102B60007ADD81E090E06AE070E075DD86E06AE0A1
:102B700070E084DC60912B0170912C0184E090E086
:102B80006ADD03C082E390E08CDA1F9108959F9282
:102B9000AF92BF92CF92DF92EF92FF920F931F936B
:102BA000CF93DF93182F962E7A01E901D8DA5B01D3
:102BB0006C0180E090E1B7014AE050E050DD183050
:102BC00008F017E0812F60E0492D61DF84E090E09C
:102BD000BE01EBDC802F60E09FDF8CE291E061DAE8
:102BE000BEDA9B01AC012A193B09C901DF91CF91E3
:102BF0001F910F91FF90EF90DF90CF90BF90AF901B
:102C00009F900895CF93DF93EA018823D1F0CB0101
:102C100048DA80E060E070E04AE050E033DC8AE0CF
:102C200090E06DE770E04AE050E019DD81E792E066
:102C30002BDC81E0C53FD80740F0CE01845F914096
:102C400003C0CB0121DCCE012CDADF91CF910895B6
:102C500084E065E070E04FE050E014DC82E090E05A
:102C60006CE370E04AE050E0FADC84E065E070E09C
:102C70004FE050E007DC60913B0170913C0182E045
:102C800090E04AE050E0EBCC5F926F927F928F929F
:102C90009F92AF92BF92CF92DF92EF92FF920F93EB
:102CA0001F93DF93CF93CDB7DEB72C970FB6F89471
:102CB000DEBF0FBECDBF182F6B01042F8139B1F1DC
:102CC000823940F48138F1F0803931F1803809F0EF
:102CD00075C00CC0833909F446C08339B0F184391A
:102CE00009F450C0853909F069C05BC084E00E94D6
:102CF0004D0A882321F0802F0E94700BD2C70E94BA
:102D0000B107CDC785E00E944D0A882309F0C9C7E5
:102D1000F601848126DAC3C786E00E944D0A882323
:102D200009F0BFC7F601848195810CC48AE00E9436
:102D30004D0A882309F0B5C7F60166817781408581
:102D4000518584819581F9D9AAC789E00E944D0AED
:102D5000882309F0A6C7F6016581768147815085F1
:102D60008481D9D99CC78AE00E944D0A882309F042
:102D700098C7F60146815781208531858481658118
:102D8000AED98DC78AE00E944D0A882309F089C711
:102D9000F60146815781208531858481658183D9FB
:102DA0007EC788E00E944D0A882309F07AC7F601A1
:102DB000668177818481958172D971C78091000283
:102DC000882309F49FC0173F88F4153F08F055C0C9
:102DD000123F19F1133F20F4113F09F093C013C0C3
:102DE000133F41F1143F09F08DC036C0183F09F47C
:102DF00066C0183F08F455C0193F09F400C11A3FD6
:102E000009F080C06DC084E0B601402F0E944D0AD9
:102E1000882309F046C725DC42C786E0B601402F6B
:102E20000E944D0A882309F03CC7F60184819581F0
:102E3000DDD935C78BE0B601402F0E944D0A8823AB
:102E400009F02FC7F601668177814085518584811D
:102E500095812285CADB23C78AE0B601402F0E94F4
:102E60004D0A882309F01DC7F601658176814781E7
:102E7000508584812185CEDA12C78BE0B601402FC0
:102E80000E944D0A882309F00CC7153F09F481E020
:102E9000F601268137810085118564814581E284B0
:102EA000F2C088E0B601402F0E944D0A882309F045
:102EB000F8C6F601668177818481958133C68AE000
:102EC000B601402F0E944D0A882309F0EAC6F60198
:102ED0006681778140855185848195810CDBDFC6D1
:102EE0008BE0B601402F0E944D0A882309F0D9C615
:102EF000F60166817781408551858481958122859F
:102F0000C5D9CDC6103FB9F488E0B601402F0E9464
:102F10004D0A882309F0C5C6F60184819581A681F2
:102F2000B7818D559444A247B74F09F0BCC681E0E4
:102F300080930002B4C61B3B09F4B0C21C3B88F569
:102F4000133B09F4A2C0143BC8F4123A09F464C05C
:102F5000133A50F4103A09F452C0113A08F0E8C19B
:102F60001F3909F0A0C665C0113B09F4AEC0123B81
:102F700008F0BBC0103B09F096C69AC0173B09F495
:102F8000E4C0183B38F4153B09F4C6C0163B08F002
:102F9000CFC0B5C0193B09F47DC11A3B08F051C23E
:102FA0001BC1133C09F460C4143C98F41F3B09F4A2
:102FB0003DC3103C38F41D3B09F490C21E3B08F0A1
:102FC000C4C27AC2113C09F4B3C3123C08F0E5C391
:102FD00072C3173C09F490C5183C38F4153C09F449
:102FE000F8C4163C08F050C5B3C4193C09F402C635
:102FF000193C08F49AC51A3C09F055C61EC686E06D
:10300000B601402F0E944D0A882309F04AC6F601F6
:103010008481958139DA43C686E0B601402F0E944B
:103020004D0A882309F03DC6F6018481958110DEA2
:1030300036C68CE0B601402F0E944D0A882309F065
:1030400030C6F601F3848481958160E070E04F2DF5
:1030500050E020E0CADAF601868160E070E04F2D92
:1030600050E020E0D7D981E0F6016781408520E07B
:1030700030E00F2D10E0EE245FD980E0F60161858D
:1030800042852F2D30E058D90AC68CE0B601402F7A
:103090000E944D0A882309F004C6F60166817781F3
:1030A00040855185228533858481958128DBF7C54C
:1030B00086E0B601402F0E944D0A882309F0F1C531
:1030C000F6018481658128DDEAC589E0B601402FDB
:1030D0000E944D0A882309F0E4C5F60165817681D6
:1030E0004781508584818EDDDAC584E0B601402FAA
:1030F0000E944D0A882309F0D4C52BDBD0C586E099
:10310000B601402F0E944D0A882309F0CAC5F60176
:103110008481658194DBC3C585E0B601402F0E94A0
:103120004D0A882309F0BDC5F601848102DCB7C5CC
:1031300086E0B601402F0E944D0A882309F0B1C5F0
:10314000F601848165813CDCAAC585E0B601402F8B
:103150000E944D0A882309F0A4C5F601148181E07C
:1031600061E06DDB112399F18CE361E029DC84E0FF
:1031700090E064E170E04AE050E071DA86E090E0CF
:1031800063E070E0A4D886E090E063E070E09FD850
:1031900086E090E063E070E09AD880E090E062E042
:1031A00070E095D886E090E063E070E090D880E031
:1031B00090E062E070E08BD886E090E063E070E041
:1031C00086D880E090E062E070E081D802C081E0C3
:1031D000B0DB81E07DDA63C586E0B601402F0E9456
:1031E0004D0A882309F05DC5F6010481158181E04F
:1031F00061E025DB84E090E064E170E04AE050E0CB
:103200002EDA84E090E060E070E025DA82E090E081
:1032100063E070E05CD882E090E063E070E057D853
:1032200082E090E063E070E052D884E090E060E0FB
:1032300070E011DA82E090E063E070E048D886E068
:1032400090E063E070E043D880E090E062E070E0FE
:103250003ED882E090E060E070E039D884E090E011
:1032600064E170E04AE050E0FAD984E090E064E183
:1032700070E04AE050E0F3D986E090E063E070E06F
:1032800026D884E090E062E070E021D880E090E110
:10329000B801C8C187E0B601402F0E944D0A8823BB
:1032A00009F0FFC4F6010481E580F68081E060E06A
:1032B000C6DA84E090E064E170E04AE050E0CFD903
:1032C00084E090E060E070E0C6D982E090E063E0E6
:1032D00070E00E94671182E090E063E070E00E947D
:1032E000671110E007C084E090E063E070E00E94A6
:1032F00067111F5F1017B8F384E090E060E070E0A2
:10330000AAD982E090E063E070E00E94671182E059
:1033100090E063E070E00E94671184E090E064E177
:1033200070E04AE050E09BD980E090E1B7017AC1BB
:103330008BE0B601402F0E944D0A882309F0B1C4EA
:10334000F601B480FCE0FB1510F48CE0B82E30E000
:1033500020E0BE016F5F7F4FAE014E5F5F4F13C035
:10336000F601E30FF11D95813F5FE22FF0E0DB01F5
:10337000AE0FBF1F892F8F708C93E40FF51F9295AE
:103380009F7090832E5F2B1558F39924FF24F3949C
:10339000AA243E010894611C711C42C0F301E90D8E
:1033A000F11D0081FE01EB0DF11D1081003308F0CD
:1033B0000053103308F010530A3008F000E01A30C0
:1033C00008F010E08F2D602F40E0E1D96C018F2DC7
:1033D000612F40E0DCD98C159D0508F4012F8F2D5D
:1033E000602F41E0D4D97C01009721F483E090E084
:1033F0000E945110AA2029F080E190E060E070E086
:103400002AD984E090E060E070E025D9EC14FD0456
:1034100018F09394AA2403C0BA94AA24A394F02E7B
:103420009B1408F4BBCF83E090E00E94511080E031
:1034300092E063E070E00FD980E092E063E070E03A
:1034400010C288E0B601402F0E944D0A882309F07F
:1034500028C4F601068117816481758181E090E0BE
:103460004AE050E0FCD880E090E065E070E00E9427
:10347000671180E090E065E070E00E94671182E0F3
:1034800090E065E070E00E94671180E092E063E008
:1034900070E0E1D882E090E0B80144C387E0B60173
:1034A000402F0E944D0A882309F0FBC3F601848156
:1034B00065814681ECDAF3C38BE0B601402F0E94B0
:1034C0004D0A882309F0EDC3F60146815781208516
:1034D00031858481658102855ADBE1C38CE0B601C8
:1034E000402F0E944D0A882309F0DBC3F601548067
:1034F000A580B68067807084818492841385852D31
:1035000061E0A3019401012F42DB6C017C010DC03D
:103510008091C401882309F0C2C3852D60E0A30116
:103520009401012F34DBE80EF91EC7018C0D9D1D9F
:10353000A816B90668F7EA14FB0408F0B0C3C50181
:103540008E199F090E945110AAC384E0B601402F32
:103550000E944D0A882309F0A4C382E090E063E052
:1035600070E00E94671182E090E063E070E00E94EA
:10357000671182E090E063E070E00E94671182E0F2
:1035800090E063E070E00E94671182E090E063E009
:1035900070E00E94671182E090E063E070E00E94BA
:1035A000671184E090E063E070E00E94671184E0BE
:1035B00090E063E070E00E94671186E090E060E0D8
:1035C00070E00E94671184E090E064E170E04AE0FE
:1035D00050E045D882E090E063E070E00E9467111F
:1035E00082E090E063E070E00E94671182E090E08A
:1035F00063E070E00E94671182E090E063E070E0B9
:103600000E94671182E090E063E070E00E94671121
:1036100082E090E060E070E00E94671184E090E05A
:1036200064E170E04AE050E01AD839C384E0B601A2
:10363000402F0E944D0A882309F033C310E084E034
:1036400090E063E070E00E9467111F5F1D30B9F7E2
:1036500084E090E060E070E00E94671184E090E018
:1036600068E270E04AE050E00E942F1386E090E0AC
:1036700060E070E00E94671184E090E068E270E032
:103680004AE050E00E942F1380E090E060E070E09C
:103690000E94671184E090E063E070E00E942B13C9
:1036A00010E084E090E063E070E00E9467111F5F2B
:1036B0001D30B9F76BC085E0B601402F0E944D0A5E
:1036C000882309F0EEC2F601148184E090E06CE0FA
:1036D00070E00E942B1384E090E068E070E00E94AC
:1036E0002B1386E090E063E070E00E94671186E0B3
:1036F00090E063E070E00E94671186E090E063E094
:1037000070E00E946711112331F086E090E063E0E1
:1037100070E00E94671110E084E090E063E070E0E8
:103720000E9467111F5F1C33B9F784E090E067C007
:1037300084E0B601402F0E944D0A882309F0B1C2EF
:1037400010E080E090E063E070E00E9467111F5F8E
:103750001D30B9F780E090E060E070E00E946711F2
:1037600084E090E06AE070E00E942B1384E090E037
:103770006FE070E00E942B1310E084E090E063E0C3
:1037800070E00E9467111F5F1A30B9F784E090E083
:1037900060E070E00E94671182C285E0B601402FB0
:1037A0000E944D0A882309F07CC2F601148184E04E
:1037B00090E06FE070E00E942B1384E090E065E001
:1037C00070E00E942B13112331F086E090E063E05B
:1037D00070E00E94671186E090E063E070E00E9474
:1037E000671186E090E063E070E00E94671186E078
:1037F00090E063E070E00E94671180E090E060E09C
:1038000070E00E94671184E090E062E070E00E9446
:103810002B1382E090E063E070E00E94671182E089
:1038200090E063E070E00E94671182E090E060E069
:1038300070E00E94671184E090E063E070E00E9415
:103840002B1382E090E063E070E00E94671182E059
:1038500090E062E070E00E94671184E090E06CE02C
:1038600070E00E942B131BC285E0B601402F0E941E
:103870004D0A882309F015C2F60184818F3198F52D
:1038800084E090E06FE070E00E942B1384E090E011
:1038900065E070E00E942B1386E090E063E070E04A
:1038A0000E94671186E090E063E070E00E9467117B
:1038B00086E090E063E070E00E94671186E090E0AF
:1038C00063E070E00E94671180E090E060E070E0EB
:1038D0000E94671184E090E068E070E00E942B1382
:1038E00080E090E0CCC084E090E06CE070E00E946A
:1038F0002B1384E090E068E070E00E942B1386E0D8
:1039000090E063E070E00E94671186E090E063E081
:1039100070E00E94671186E090E063E070E00E9432
:10392000671180E090E063E070E00E94671186E03C
:1039300090E063E070E00E94671180E090E060E05A
:1039400070E00E94671184E090E063E070E05FCF78
:1039500084E0B601402F0E944D0A882309F0A1C1DE
:1039600084E090E06CE070E00E942B1384E090E033
:1039700068E070E00E942B1386E090E063E070E066
:103980000E94671186E090E063E070E00E9467119A
:1039900086E090E063E070E00E94671180E090E0D4
:1039A00063E070E00E94671186E090E063E070E001
:1039B0000E94671180E090E063E070E00E94671170
:1039C00086E090E063E070E00E94671180E090E0A4
:1039D0004AC084E0B601402F0E944D0A882309F0B6
:1039E00060C184E090E06CE070E00E942B1384E002
:1039F00090E068E070E00E942B1386E090E063E0C6
:103A000070E00E94671186E090E063E070E00E9441
:103A1000671186E090E063E070E00E94671180E04B
:103A200090E063E070E00E94671186E090E063E060
:103A300070E00E94671180E090E063E070E00E9417
:103A4000671186E090E063E070E00E9467111CE37C
:103A500084E090E063E070E00E9467111150113043
:103A6000B9F784E090E060E070E00E94671184E0C4
:103A700090E062E070E00E942B1382E090E063E04F
:103A800070E00E946711C5CE84E0B601402F0E940D
:103A90004D0A882309F005C181E06FEF4FEF22E363
:103AA00030E00E94DE1181E06FEF40EA20E030E07C
:103AB0000EEF11E00E94E81184E090E06AEA70E005
:103AC0000E942B1384E090E06AEA70E00E942B13BE
:103AD00084E090E06AEA70E00E942B1381E060E0ED
:103AE00040E822E330E006E811E00E94E81182E0BD
:103AF00090E066E871E0C3C086E0B601402F0E9406
:103B00004D0A882309F0CDC0F601E480F58081E0FC
:103B10006FEF40E820E030E087010E94E81182E08A
:103B200090E0B7010E94D512BAC086E0B601402FDE
:103B30000E944D0A882309F0B4C0F601C480D580E4
:103B4000EE24FF2452C081E060E84FEF20E030E037
:103B500000E210E00E94E81184E090E060E170E093
:103B60000E942B1384E090E060E170E00E942B1330
:103B700081E06FEF40E820E030E00E94E81184E04F
:103B800090E060E170E00E942B1384E090E060E13F
:103B900070E00E942B1381E060E840E020E030E01C
:103BA0000E94E81184E090E060E170E00E942B1335
:103BB00084E090E060E170E00E942B1381E060E01F
:103BC00040E820E030E00E94E81184E090E060E10D
:103BD00070E00E942B1384E090E060E170E00E94AE
:103BE0002B1380E890E0E80EF91EEC14FD0408F4B5
:103BF000AACF55C084E0B601402F0E944D0A882309
:103C000009F04FC081E06FEF40E924E630E00AEFB1
:103C100010E00E94E81184E090E064E670E00E9409
:103C20002B1384E090E062E370E00E942B1381E0AC
:103C30006FEF4FEF22E330E030C084E0B601402F59
:103C40000E944D0A882369F581E060E84FEF2EE17C
:103C500030E00E94DE1181E06FEF40E924E031E0C6
:103C60000E94DE1181E060E040E822E330E000E9FC
:103C700011E00E94E81182E090E060E971E00E94AA
:103C8000D51281E060EC40E028E730E00E94DE11D0
:103C900081E06FEF40E028E730E00E94DE110E94F3
:103CA000C80981E001C080E02C960FB6F894DEBF11
:103CB0000FBECDBFCF91DF911F910F91FF90EF907D
:103CC000DF90CF90BF90AF909F908F907F906F903C
:103CD0005F900895A1E21A2EAA1BBB1BFD010DC027
:103CE000AA1FBB1FEE1FFF1FA217B307E407F507AC
:103CF00020F0A21BB30BE40BF50B661F771F881F88
:103D0000991F1A9469F760957095809590959B011D
:103D1000AC01BD01CF010895FB01DC0102C005909B
:103D20000D9241505040D8F70895FB01DC0102C0CC
:103D300001900D9241505040D8F70895F894FFCF6C
:103D4000012003E8037800FA0064007D007701C8D1
:103D500000FA007701FA00C40977015F057D007160
:103D600002500077016E007701F4017701E45714E7
:103D70000050005A002C012C01FA00FA000100004A
:103D80000001000000381EE797E60D000008808063
:043D9000808000002F
:00000001FF
