:10000000E5C2000000C30000FEC20000FCC2000008
:10001000FAC20000F8C20000F6C20000F4C20000FC
:10002000F2C20000F0C200005DC50000ECC200009A
:10003000EAC20000E8C20000E6C20000E4C200001C
:10004000E2C20000E0C20000DEC20000DCC200002C
:10005000DAC20000D8C20000D6C20000D4C200003C
:10006000D2C200000C94C9080C949E08CCC20000B7
:10007000CAC20000C8C20000C6C20000C4C200005C
:10008000C2C20000C0C20000BEC20000BCC200006C
:10009000BAC20000B8C20000B6C20000B4C200007C
:1000A000B2C20000B0C20000AEC2000000000000FA
:1000B00003836BF2F7703BE1F4F350131F979AC779
:1000C0001C14F135E8E7A126EB64CAD4CF58D98ACD
:1000D000CCDBB2783828E26B3BAB8999D0CF434D6B
:1000E000D34C28BF27BF78AC243C135E6FC75E108B
:1000F0006C4435E298B765F19B340E037050C4D759
:1001000073D3AF258720FF3684A394C4A09F879A1A
:10011000A31CEC6857EFBC7B546CD789BF081D5DEE
:10012000BC8B76AF487826BC4BFB4D4EDE8EBD2097
:10013000DD0DD6D229FE86C12A7DED33C11927E710
:10014000C29A4C1536691C0635EA77F411D664AAB2
:1001500012550F58E6A65F4BE52534B90E41FE6DEA
:100160000DC2959FF931C58CFAB2AE7EB149E3302C
:10017000B2CA88C24639D8D145BAB323AEDE79F7C0
:10018000AD5D120559AE42165A2D29E47E113ABAD8
:100190007D9251488961015B8AE26AA96186A07DEE
:1001A0006205CB8F96F69B9C9575F06EBC1D7B41CE
:1001B000BF9E10B34B6D40A048EE2B52A38AE18640
:1001C000A0098A7454FADA675779B1957345A2CBBE
:1001D00070C6C9398435992A87B6F2D86CD2380CE2
:1001E0006F5153FE9BA203ED9821681FD3DA25516E
:1001F000D0594EA324AA1EB027297542CC4DBF96D4
:10020000CFCED4643B3D847738BEEF851C82FCDBC7
:100210001F019729EBF2C73AE871ACC80315661CB9
:1002200000960DEEF4655DFDF7E6360F6293C6614C
:100230006110AD9395E3FD80966096727D045CA697
:100240007E8737548A74674789F70CB5ADCB1FEBAF
:10025000AE4874195ABB240A59384FF8B25C852C41
:10026000B1DFEEDE452CBECD46AFD53F0D549871C3
:100270000ED7F383FA24A390F9A7C86212C302B67B
:1002800011406944E5B33957E63052A5C20C41FB31
:10029000C18F2A09357C7A1A36FF11E8DD9BDB3CD9
:1002A000DE18B0CE2AEBE0DD29688B2F783BF68292
:1002B0007BB89D708F4BCD638CC8A69167AC6C45A5
:1002C000642F07B790DC57A4935F3C56B7632F08A1
:1002D000B4E044FA401314E943907F1BA8F4B5CF6F
:1002E000AB77DE3D5F848E2E5C07E5DC17FCA892C1
:1002F000147FC360E08C9373E30FF881086B325571
:100300000BE859A7FF1B09B4FC986246D8A47118E2
:10031000DB271AEA2FD44AF92C57210BC733EBDF1E
:10032000C4B0802D3043D03E33C0BBCCA6B54BA269
:10033000A536205051C5704352461BB1B922D16534
:10034000BAA1BA974E52EA844DD1817669ED9228CE
:100350006A6EF9DA9E9DA9C99D1EC23B767A08EFA6
:1003600075F9631D810A330E828958FCC97215B272
:10037000CAF17E403E022E533D8145A1D6E58F75E0
:10038000D566E4872195B4942216DF66062ACC3818
:1003900005A9A7CAF15AF7D9F2D99C2B19BD56FF66
:1003A0001A3E3D0DEECD6D1EED4E06ECC4268DC3FE
:1003B000C7A5E6313356B62230D5DDD0DBB1170400
:1003C000D8327CF62CC12CE52F4247170B7E5449BE
:1003D00008FD3FBBFC0E6FA8FF8D045A14E9CE8EBA
:1003E000176AA57CE399F56FE01A9E9DABE1D3D324
:1003F000A862B8215C91E8325F1283C0B4764914D8
:10040000B7F522E6430672F54085190764B90A5923
:10041000673A61AB93C931B8904A5A4A7B2E909E95
:1004200078ADFB6C8C5EAB7F8FDDC08D1AA830E39E
:10043000192B5B11EDD80B02EE5B60F0053FAA248F
:1004400006BCC1D6F24F91C5F1CCFA37D5F0E969B7
:10045000D673829B2280D2882103B97ACA6773AE91
:10046000C9E4185C3D17484F3E9423BD756F6EF389
:1004700076EC0501821F5512819C3EE06AF8F43447
:10048000697B9FC69D88CFD59E0BA427BA37B779C5
:10049000B9B4DC8B4D478C984EC4E76AA5A02DBE3D
:1004A000A623464C52D0165F51537DAD0501090578
:1004B000A1011500250135004501750195100509BB
:1004C00019012910810205012507463B0175049594
:1004D0000165140939814265009501810126FF00FB
:1004E00046FF000930093109320935750895048144
:1004F000020600FF0920950181020A212695089134
:1005000002C012010002000000400D0F9200000125
:10051000010200010902290001010080FA0904001A
:10052000000203000000092111010001225600070A
:100530000502034000080705810340000804030981
:10054000041C0348004F0052004900200043004FA4
:10055000002E002C004C00540044002E000000240B
:100560000350004F004B004B0045004E002000435D
:10057000004F004E00540052004F004C004C00450C
:100580000052000000D5738162EED5E1EB87FB32AB
:1005900090FD4C66EF8B83F4D8CD3598F89A070818
:1005A000C5E3DEEF34208E99125EC41094D3948A92
:1005B0000D8A77CD128360E601000102000102007E
:1005C00001020300000001010102020211241FBE0A
:1005D000CFEFDAE0DEBFCDBF11E0A0E0B1E0E8E8A8
:1005E000FDE302C005900D92A435B107D9F712E0E2
:1005F000A4E5B1E001C01D92AA36B107E1F70E945F
:100600005E130C94C21EFCCC882311F05E9A0895F0
:100610005E980895569A80E0F7CF9C0140910C02B5
:1006200050910D024617570718F4F90190E043C0A6
:100630006115710511F0AB01F8CF8091E8008E775C
:100640008093E80040E050E0F0CF809105028823DD
:1006500009F447C0853009F446C08091E80083FD65
:1006600044C08091E80082FD36C08091E80080FFA0
:1006700022C08091F3009091F200782F60E0292F42
:1006800030E0262B372B07C081918093F100415039
:1006900050402F5F3F4F4115510519F0203431056F
:1006A00098F390E02034310509F491E08091E8005E
:1006B0008E778093E8004115510539F6992329F684
:1006C0000AC080910502882361F0853061F0809135
:1006D000E80083FD0AC08091E80082FFF2CF80E04D
:1006E000089582E0089583E0089581E008959C01D3
:1006F00040910C0250910D024617570718F4F9016A
:1007000090E044C06115710511F0AB01F8CF809104
:10071000E8008E778093E80040E050E0F0CF8091D1
:100720000502882309F448C0853009F447C0809148
:10073000E80083FD45C08091E80082FD37C08091CC
:10074000E80080FF23C08091F3009091F200782FA1
:1007500060E0292F30E0262B372B08C0849180934E
:10076000F1003196415050402F5F3F4F41155105E8
:1007700019F02034310590F390E02034310509F46C
:1007800091E08091E8008E778093E8004115510553
:1007900031F6992321F60AC080910502882361F081
:1007A000853061F08091E80083FD0AC08091E80007
:1007B00082FFF2CF80E0089582E0089583E00895FB
:1007C00081E00895BF92CF92DF92EF92FF920F9354
:1007D0001F93CF93DF93182F092F7B016A01EFD06E
:1007E000B82E8823B1F5812F902F9C01E901C11407
:1007F000D10439F0F60180819181E81AF90AC80F15
:10080000D91F00E010E022C08091E80085FD16C0ED
:100810008091E8008B778093E8009BD3C114D104CA
:1008200049F0F60180819181800F911F918380832F
:1008300085E010C0C4D0882349F00CC08091F1003D
:1008400089930894E108F1080F5F1F4FE114F10448
:10085000D9F68B2DDF91CF911F910F91FF90EF90E3
:10086000DF90CF90BF900895BF92CF92DF92EF922A
:10087000FF920F931F93CF93DF93182F092F7B01C4
:100880006A019DD0B82E8823B1F5812F902F9C014D
:10089000E901C114D10439F0F60180819181E81A8F
:1008A000F90AC80FD91F00E010E022C08091E800CB
:1008B00085FD16C08091E8008E778093E80049D3CB
:1008C000C114D10449F0F60180819181800F911FFC
:1008D0009183808385E010C072D0882349F00CC0DA
:1008E00089918093F1000894E108F1080F5F1F4F90
:1008F000E114F104D9F68B2DDF91CF911F910F9167
:10090000FF90EF90DF90CF90BF900895382F282F61
:100910002EC0822F8F708093E900231721F4762F49
:10092000942F50E006C07091EC009091ED00509132
:10093000F00091FF1BC08091EB008E7F8093EB0055
:100940008091ED008D7F8093ED008091EB008160C0
:100950008093EB007093EC009093ED005093F000C7
:100960008091EE0087FD02C080E008952F5F273060
:1009700080F23F703093E90081E008958091060293
:1009800088239CF404C0809105028823B9F08091EB
:10099000E80082FFF8CF8091E8008B778093E80031
:1009A000089580910502882349F08091E80080FF36
:1009B000F8CF8091E8008E778093E8000895409109
:1009C000E4005091E50024E68091EC0080FF24C013
:1009D0008091E80080FD1EC080910502882311F4FB
:1009E00082E00895853011F483E008958091EB0052
:1009F00085FF02C081E008958091E4009091E500B8
:100A00008417950709F3222311F484E008952150F7
:100A1000AC01DACF80E008958091E80082FFDCCF5E
:100A2000F9CFEF92FF920F931F934FD056D008ED5E
:100A300010E0F80180818F778083808180688083D7
:100A400080818F7D808319BC109205021092010273
:100A5000109203021092020280EEE82EF12CF701B0
:100A600080818B7F8083F80180818160808380E03A
:100A700060E042E34BDFE1EEF0E080818E7F808337
:100A8000E2EEF0E0808181608083808188608083F5
:100A9000F70180818E7F8083F8018081806180836F
:100AA0001F910F91FF90EF900895E8EDF0E08081A5
:100AB0008F7E8083E7EDF0E080818160808384E039
:100AC00082BF81E080930402ACCFE8EDF0E080814A
:100AD0008E7F80831092E20008951092DA001092C7
:100AE000E10008951F920F920FB60F9211242F93D9
:100AF0003F934F935F936F937F938F939F93AF93A6
:100B0000BF93EF93FF938091E10082FF0AC0809131
:100B1000E20082FF06C08091E1008B7F8093E100BC
:100B200017D28091DA0080FF1DC08091D80080FF2D
:100B300019C08091DA008E7F8093DA008091D9000D
:100B400080FF0CC080E189BD82E189BD09B400FE4F
:100B5000FDCF81E0809305028CD304C019BC1092B4
:100B6000050288D38091E10080FF18C08091E200E7
:100B700080FF14C08091E2008E7F8093E20080911C
:100B8000E20080618093E2008091D80080628093CF
:100B9000D80019BC85E080930502DAD18091E1008C
:100BA00084FF2FC08091E20084FF2BC080E189BDCB
:100BB00082E189BD09B400FEFDCF8091D8008F7D10
:100BC0008093D8008091E1008F7E8093E100809136
:100BD000E2008F7E8093E2008091E200816080934A
:100BE000E20080910102882311F084E007C0809127
:100BF000E30087FD02C081E001C083E0809305022D
:100C0000A7D18091E10083FF22C08091E20083FFA1
:100C10001EC08091E100877F8093E10082E0809395
:100C20000502109201028091E1008E7F8093E10025
:100C30008091E2008E7F8093E2008091E2008061EB
:100C40008093E20080E060E042E360DE81D1FF91CA
:100C5000EF91BF91AF919F918F917F916F915F9134
:100C60004F913F912F910F900FBE0F901F901895AD
:100C70001F93DF93CF93CDB7DEB7AC970FB6F89441
:100C8000DEBF0FBECDBFE6E0F2E08091F1008193C0
:100C900022E0EE30F207C9F7EED28091E80083FF40
:100CA0003FC18091060230910702353009F48DC0B2
:100CB000363040F43130E1F1313070F0333009F04A
:100CC0002FC136C0383009F4FDC0393009F40CC1E9
:100CD000363009F025C19CC0803821F0823809F0F7
:100CE0001FC108C090910202809103028823B1F0D5
:100CF000926014C080910A028F70873008F010C192
:100D00008093E9008091EB0090E025E0969587952F
:100D10002A95E1F7982F91701092E9008091E800F0
:100D2000877F8093E8009093F1001092F100D5C086
:100D3000882319F0823009F0F3C090E08F71907031
:100D4000009721F0029709F0EBC00CC080910802D7
:100D5000813009F0E5C010920302333081F58093B1
:100D600003022DC080910802882349F520910A02D0
:100D70002F70822F8150863008F0D2C02093E90076
:100D80008091EB0080FF1BC0333021F48091EB0099
:100D9000806213C08091EB0080618093EB0081E062
:100DA00090E002C0880F991F2A95E2F78093EA002D
:100DB0001092EA008091EB0088608093EB00109223
:100DC000E9008091E800877F8BC0882309F0A8C0E4
:100DD000109108021F778091E3008078812B809327
:100DE000E3008091E800877F8093E800C7DD809171
:100DF000E80080FFFCCF8091E30080688093E300EF
:100E0000112311F482E001C083E08093050288C0C1
:100E10008058823008F084C08091080290910902C5
:100E200023E08C3D920709F033C083E08C838AE293
:100E30008B837FB7F894DE0115966EE040E050E0BA
:100E400011E2E62FF0E010935700849140FF03C0B9
:100E500082958F706F5F8F70282F30E08A3018F086
:100E6000C901C79602C0C901C0968D939D934F5F7B
:100E70005F4F4431510529F77FBF8091E800877F9C
:100E80008093E800CE0103966AE270E0C6DB14C0EE
:100E900060910A0270910B02AE014F5F5F4FA0D1CB
:100EA000BC01009709F43CC08091E800877F8093E3
:100EB000E80089819A811BDC8091E8008B77809320
:100EC000E8002EC0803861F58091E800877F80932C
:100ED000E800809101028093F1008091E8008E7714
:100EE0008093E8004BDD1CC08823D1F49091080268
:100EF0009230B0F48091E800877F8093E80090936F
:100F000001023CDD80910102882331F48091E300ED
:100F100087FD02C081E001C084E0809305021AD2FF
:100F20008091E80083FF0AC08091E800877F80936A
:100F3000E8008091EB0080628093EB00AC960FB6E6
:100F4000F894DEBF0FBECDBFCF91DF911F91089502
:100F500008951F9380910502882371F01091E90094
:100F60008091EC001092E9008091E80083FF01C0BD
:100F70007FDE1F701093E9001F91089581E044CB3C
:100F800049CB08956F927F928F929F92AF92BF92BA
:100F9000CF92DF92EF92FF920F931F93DF93CF9345
:100FA00000D000D0CDB7DEB77B018C014A015901DA
:100FB000CC24DD243E010894611C711C20C0F40186
:100FC000EC0DFD1D60816E2570E0660F771F660FCA
:100FD000771F64557F4FC30144E050E00E94B01E6C
:100FE000EF2CF02E012F112789819A81AB81BC81D2
:100FF000E826F9260A271B270894C11CD11CCA140D
:10100000DB04E8F2B701C8010F900F900F900F902A
:10101000CF91DF911F910F91FF90EF90DF90CF90D4
:10102000BF90AF909F908F907F906F900895EF92B8
:10103000FF920F931F937C018B01045010406FEFC0
:101040007FEF8FEF9FEFA70198019CDF0E0D1F1D13
:10105000F80160837183828393831F910F91FF90C6
:10106000EF9008959B01AC01F89460E079E08DE386
:1010700090E00E948E1E21503040404050405695D6
:101080004795379527953093CD002093CC0082E08B
:101090008093C80088E98093C90086E08093CA00E5
:1010A0001092670180916701809366011092B101EF
:1010B0008091B1018093B001789408959091660178
:1010C0009F5F923108F090E08091670120E08913E2
:1010D00021E0822F0895282F909166019F5F923121
:1010E00008F090E0809167018917E1F3E92FF0E0C3
:1010F000EC5AFE4F20839093660188EB8093C900E1
:1011000008959091B0018091B10120E0981321E001
:10111000822F08959091B0018091B1019817D1F379
:101120009091B1019F5F983408F090E0E92FF0E0D2
:10113000E859FE4F80819093B10108951F920F925C
:101140000FB60F9211248F939F93EF93FF9390917B
:10115000660180916701981721F488E98093C9009E
:101160000FC0909167019F5F923108F090E0E92FE6
:10117000F0E0EC5AFE4F80818093CE00909367019F
:10118000FF91EF919F918F910F900FBE0F901F9045
:1011900018951F920F920FB60F9211242F938F93D1
:1011A0009F93EF93FF932091CE009091B0019F5FAA
:1011B000983408F090E08091B101981739F0E92F48
:1011C000F0E0E859FE4F20839093B001FF91EF913A
:1011D0009F918F912F910F900FBE0F901F90189598
:1011E000DA019330B1F0943028F4913041F092302C
:1011F00079F50AC0913211F1923251F524C0E2E042
:10120000F5E022E130E028C0E4E1F5E029E230E059
:1012100023C0813049F0813018F08230C9F40AC00F
:10122000EDE3F5E0849103C0E1E4F5E08491282F3B
:1012300030E012C0EFE5F5E08491F9CFE6E2F5E0A9
:1012400029E030E009C0ECEAF4E026E530E004C033
:10125000E0E0F0E020E030E0ED93FC93C901089578
:101260006091B2017091B3018091B4019091B50188
:1012700008950895089508956CCE08950F931F93CF
:10128000DF93CF93CDB7DEB72F970FB6F894DEBFBD
:101290000FBECDBF288739874A875B876C877D87DC
:1012A0008E879F8780910502843009F047C082E0D5
:1012B0008093E9008091E80082FF14C08091E800EB
:1012C00085FF0BC08E010F5F1F4FC80167E070E004
:1012D00040E050E077DA8823C1F78091E8008B770F
:1012E0008093E80081E08093E9008091E80080FF2E
:1012F00025C08E01085F1F4FC80168E070E040E024
:1013000050E0B2DA8823C1F78091E8008E778093AD
:10131000E8008091B2019091B301A091B401B09125
:10132000B5010196A11DB11D8093B2019093B30147
:10133000A093B401B093B50181E001C080E02F9685
:101340000FB6F894DEBF0FBECDBFCF91DF911F91D6
:101350000F91089582E060EC42E3D8DA81E061EC1D
:1013600042E3D4CA9091BB018091BC01891719F462
:1013700020E030E010C0892F90E083709070880FDB
:10138000991F9C0143E0220F331F4A95E1F7281B68
:10139000390B225F3D4FC90108950F931F93CF93DF
:1013A000DF938091C401882309F043C08091BB0181
:1013B00090E083709070880F991FFC0163E0EE0F3E
:1013C000FF1F6A95E1F7E81BF90BE25FFD4F8DEE19
:1013D000808385E481838F010E5F1F4F828193811B
:1013E000A481B581E8018C839D83AE83BF83809106
:1013F0003D0190913E01A0913F01B0914001828357
:101400009383A483B5830196A11DB11D80933D01F3
:1014100090933E01A0933F01B093400121DFF8017A
:1014200060877187828793878091BB018F5F8093EC
:10143000BB01DF91CF911F910F910895CF93DF935F
:10144000EC010EDF6093B6017093B7018093B80191
:101450009093B9016091BA018091BB01861701F1A7
:10146000862F90E083709070FC01B3E0EE0FFF1FB9
:10147000BA95E1F7E81BF90BEE0FFF1FE05FFD4F98
:10148000288139814A815B8180819181A281B381E8
:10149000281739074A075B0719F46F5F6093BA0191
:1014A000DF91CF910895481711F480E00895842FBB
:1014B0001FD181E008950F931F938C011092BA0100
:1014C0001092BB011092BC011092BD01BDD4F80175
:1014D0006081718182819381A9D01F910F910895BC
:1014E000FC012091BC01622F70E08091BA01AB0138
:1014F000481B51094430510514F080E008954081A3
:10150000409544502F5F2093BC01CB0183709070B5
:10151000880F991F9C0153E0220F331F5A95E1F762
:10152000281B390B225F3D4FC901BF0150E00E94CB
:10153000B91E81E008959091BB018091BA0198177E
:1015400009F440C02091BD01291721F12F5F20939C
:10155000BD01215030E023703070220F331FC901CC
:1015600073E0880F991F7A95E1F7821B930B825FD6
:101570009D4FA2D19091BD018091BB01981701F5BB
:101580006FDE6093B6017093B7018093B8019093BA
:10159000B90116C065DE2091B6013091B7014091C6
:1015A000B8015091B901621B730B840B950B605805
:1015B00072408040904030F08091BA018093BD012C
:1015C00081E0089580E008956A5F6093C001962FDE
:1015D0009095909346028093470286E492E070E0F3
:1015E00026CDEF92FF920F931F937B018C01809188
:1015F000C001882311F080E014C0E0924802F0920C
:10160000490200934A0210934B0220934C023093FC
:101610004D0240934E0250934F0284E168E0D4DFC4
:1016200081E01F910F91FF90EF9008959B01AC0115
:101630008091C001882311F080E008952093480232
:101640003093490240934A0250934B0281E164E097
:10165000BBDF81E008959B01AC018091C00188232C
:1016600011F080E00895209348023093490240939E
:101670004A0250934B0280E164E0A6DF81E00895C6
:101680009C018091C001882311F080E0089530937F
:1016900049022093480287E062E096DF81E00895E6
:1016A000609348027093490280934A0290934B02E0
:1016B00086E064E089DF81E00895609348027093DA
:1016C000490280934A0290934B0285E064E07CDFFC
:1016D00081E008958093480283E061E075DF81E056
:1016E00008958093480282E061E06EDF81E0089512
:1016F0008093480281E061E067DF81E00895809196
:10170000C001882311F080E0089580E060E05CDF94
:1017100081E00895EF92FF920F931F93FB018334B2
:1017200009F470C0843440F4813431F1823408F01B
:1017300040C0803439F408C0843409F484C086344D
:1017400009F48EC080E094C0443009F08BC08081E1
:101750009181A281B3810196A11DB11D80934101A8
:1017600090934201A0934301B09344016081718141
:10177000828193815BDF7BC0443009F073C08EE0CF
:101780008093C00181EF8093460284E180934702F9
:1017900080819181A281B381809348029093490214
:1017A000A0934A02B0934B028AE091E8A6E7B8E71B
:1017B0001CC0443009F056C08EE08093C00181EF18
:1017C0008093460284E18093470280819181A281C7
:1017D000B3818093480290934902A0934A02B09348
:1017E0004B0280E298ECA6E7B8E780934C02909316
:1017F0004D02A0934E02B0934F0286E492E06EE059
:1018000070E01FC0443071F58BE08093C00184EF1D
:101810008093460282E18093470280819181A28178
:10182000B3818093480290934902A0934A02B093F7
:101830004B028091BE0180934C0286E492E06BE003
:1018400070E0F5DB14C0443069F4E080F18002817F
:10185000138106DD9B01AC01C801B701C2DE07C0E0
:10186000443019F0842F44DF02C0CB0124DE81E034
:101870001F910F91FF90EF900895833018F48130FD
:1018800038F414C0843021F0813161F080E0089593
:1018900082E18093C001E6E4F2E0DF011D928A95C7
:1018A000E9F704C0443021F0842F22DF81E008955D
:1018B000CB01C4DD81E008950F931F93FC012081CB
:1018C00020952093C00106E412E030E0245030401F
:1018D000C801BF01A9010E94B91E6091C001C801E1
:1018E00070E0A5DB1F910F9108950F931F9309DC02
:1018F000882319F41092C20168C01091C1010ADC5A
:10190000E12FF0E0E85AFD4F80831F5F1093C10183
:1019100080915802082F0095113059F5882359F409
:101920001092C1018091C201813009F0E8DE81E0AE
:101930008093C2014AC0063010F00331D0F01092FB
:10194000C1018091C201823011F0802FD1DE82E08E
:101950008093C20139C0D5DB8823B1F11091C10158
:10196000D9DBE12FF0E0E85AFD4F80831F5F109331
:10197000C1012091C101201770F330E024503040A4
:101980006FEF7FEF8FEF9FEF48E552E0FBDAE091DA
:10199000C101F0E0EC5AFD4F208131814281538139
:1019A000621773078407950759F01092C10180915F
:1019B000C201823049F0802F94DE0093C00104C040
:1019C0001092C20182E001C081E01F910F91089541
:1019D0008091C001882389F4089570DB882311F475
:1019E00081E008959091BF01E92FF0E0EA5BFD4F9F
:1019F00080819F5F9093BF016EDB9091BF018091CA
:101A0000C001981750F31092BF011092C00180E0FE
:101A10000895CF92DF92EF92FF920F931F93D8DF3A
:101A2000882309F0A3C061DF882311F484DD9FC0FF
:101A3000813009F49BC0C090C1018AEFC80E10929A
:101A4000C101D09059028FE38D1548F08D2D6AE5C4
:101A500072E04C2D12DF882309F088C065C0E09049
:101A60005A02F0905B0200915C0210915D0220919D
:101A70004101309142014091430150914401D8010C
:101A8000C701821B930BA40BB50B181619061A0677
:101A90001B063CF480E4D81621F0CA01B9010DDE22
:101AA00065C08D2D807C803481F58D2D6AE572E0D6
:101AB0004C2D30DE882369F4E091C501F091C60118
:101AC000309791F18D2D6AE572E04C2D09958823B0
:101AD00059F18091410190914201A0914301B0914F
:101AE0004401E816F9060A071B0709F03FC00894ED
:101AF000E11CF11C011D111DE0924101F092420117
:101B0000009343011093440131C0E216F306040729
:101B1000150721F0C801B7019EDD28C08091C701DB
:101B20009091C801892B19F48D2DD4DD1FC088E553
:101B300092E0D6DC8823B9F0C801B7018CDD809132
:101B4000410190914201A0914301B091440101965D
:101B5000A11DB11D8093410190934201A0934301C7
:101B6000B093440103C0C801B7019ADD81E01F9121
:101B70000F91FF90EF90DF90CF900895EF92FF923A
:101B80000F931F93209145013091460140914701E9
:101B900050914801DA01C9016DE0880F991FAA1F11
:101BA000BB1F6A95D1F782279327A427B5277C010D
:101BB0008D0121E116950795F794E7942A95D1F7C1
:101BC000E826F9260A271B27A801970185E0220F9E
:101BD000331F441F551F8A95D1F72E253F254027D7
:101BE000512720934501309346014093470150937C
:101BF0004801B901CA011F910F91FF90EF9008951C
:101C0000FC01DB01118210821D921C92FA011082EC
:101C10000895089590E0FC01EB57FA4FE49123E317
:101C2000629FB0011124680F791FE62787EC90E0CE
:101C3000E89F802D112408951F93CF93DF93CDEC5F
:101C4000D1E010E0812F6091CC01E4DF89931F5F28
:101C50001333C1F7DF91CF911F910895DF92EF9277
:101C6000FF920F931F9393E0899FC0011124F82ED8
:101C7000E090CC016E2DCEDFD82E0F2D10E08F2DF1
:101C80008F5F6E2DC7DF03531E4FF8019181582FD0
:101C9000592740E020812D2530E0242B352BC90128
:101CA0001F910F91FF90EF90DF9008950F931F9376
:101CB00093E0899F800111240E5F802F6091CC01F9
:101CC000A9DFEDECF1E0E00FF11D9081892790E0B4
:101CD0001F910F9108951F93182FC0DF892B19F0C2
:101CE00080E090E009C0812FE1DF20E0892B09F03E
:101CF00021E081E02827822F1F910895DF92EF9243
:101D0000FF920F931F93F62EE72E93E0899FC00159
:101D10001124D82E082F10E06091CC017BDF0353F3
:101D20001E4FF826F801F0828D2D8F5F6091CC0157
:101D300071DFE826F801E1821F910F91FF90EF908B
:101D4000DF900895FF920F931F93F62E93E0899FE3
:101D5000800111240E5F802F6091CC015BDFEDECE0
:101D6000F1E0E00FF11DF826F0821F910F91FF9036
:101D70000895EF92FF920F931F93CF93DF9380917B
:101D8000CB01882309F43BC000914B0110914C0119
:101D9000C0E0D0E071E0E72EF12C8C2F5FDF892BC3
:101DA00059F4C7010C2E02C0880F991F0A94E2F75C
:101DB00080959095082319232196CE30D10569F797
:101DC00010934C0100934B018EE048DF892B19F4EE
:101DD00088E080934D018FE041DF892B29F480E872
:101DE00080934E0180934F0180E138DF892B29F4E5
:101DF00080E880935001809351011092CB01DF91D4
:101E0000CF911F910F91FF90EF90089580914B011A
:101E100090914C01892BA9F480914D01883089F46F
:101E200080914E01803869F480914F01803849F4E7
:101E300080915001803829F490E0809151018038E0
:101E400009F091E0892F08951F9381E08093C401E8
:101E50008093CB0110E0812F60E070E04FDF812F95
:101E600060E070DF1F5F1131B1F783DF1F910895CC
:101E7000FF920F931F93CF93DF937BDF20914B0152
:101E800030914C0140914D0150914E0160914F01B4
:101E9000709150018091510190915201EFD9F82E2B
:101EA000EBD9FF2011F411E037C010E0812FD6DE0E
:101EB000EC01812FFBDE682F8091C401882321F083
:101EC00000E0C0E0D0E007C0062F209711F0219776
:101ED00002C0611101508091CC018F5F8093CC01D1
:101EE000812FBE010BDF812F602F2CDF8091CC0171
:101EF00081508093CC018F5F1F5F1131B9F68093C1
:101F0000CC0181E08093CB01E091C901F091CA013D
:101F1000309709F0099512E37CDD882311F0115008
:101F2000D9F78F2DDF91CF911F910F91FF900895D9
:101F3000DF92EF92FF920F931F93CF93DF93F82ED0
:101F4000E62ED42EE9018091C401882319F090DF98
:101F500081E01DC0FF2011F410E101C01FE0812FBE
:101F6000BADE8823A1F0812FBE01C8DE812F602F49
:101F7000E9DEFF2029F0E0924E01D0924F0104C02B
:101F8000E0925001D092510181E08093CB01DF912A
:101F9000CF911F910F91FF90EF90DF9008950F93D5
:101FA0001F93CF93DF93082FEB01142F8091C4016F
:101FB000882319F05DDF81E00FC08EE08CDE88237E
:101FC00059F08EE0BE019ADE8EE0612FBBDE0093F9
:101FD0004D0181E08093CB01DF91CF911F910F9153
:101FE00008956F927F928F929F92AF92BF92CF92FD
:101FF000DF92EF92FF920F931F93CF93DF936C01C9
:102000005B01742E8091C401882311F031DF44C03C
:10201000C0E0D0E001E010E0C8010C2E02C0880F43
:10202000991F0A94E2F78C219D21892B21F08C2F96
:1020300052DE882391F12196CE30D10569F70091C7
:102040004B0110914C01C0E0D0E0E1E08E2E912CCC
:102050006624639474010C2E02C0EE0CFF1C0A94DB
:10206000E2F7C7018C219D21892B71F08C2F33DE83
:10207000882351F08C2FB50141DE8C2F672D62DE55
:102080000E291F296092CB012196CE30D10511F780
:1020900010934C0100934B0181E0DF91CF911F9190
:1020A0000F91FF90EF90DF90CF90BF90AF909F90F7
:1020B0008F907F906F9008951F9311E005C010E0FE
:1020C0008091C401882361F4D3DE8823C1F31123F6
:1020D00039F08091C401882319F481E090E0D0DACE
:1020E0001F91089585C20895A4C00895EF920F939B
:1020F0001F93CF93DF93982F762F8A01E901483001
:10210000510510F408E010E080E0692F472F980196
:10211000EE2435D1CE01E8DFDF91CF911F910F91F1
:10212000EF900895EF920F931F93CF93DF93982F23
:10213000762F8A01E9014830510510F408E010E0DB
:1021400081E0692F472F9801EE2419D1CE01CCDF11
:10215000DF91CF911F910F91EF900895CF93DF936F
:102160009B01EA016530710510F425E030E0B9010A
:10217000A90120E072D1CE01B7DFDF91CF910895A0
:10218000CF93DF939B01EA016530710510F425E0E0
:1021900030E0B901A90120E04BD2CE01A5DFDF91EB
:1021A000CF9108955DC808950F931F930091490141
:1021B00010914A0120E03EE030934A01209349010A
:1021C0000E94040310934A01009349011F910F914B
:1021D00008958093BE0184B7877F84BF88E10FB6DE
:1021E000F89480936000109260000FBEE1E6F0E08A
:1021F00080E88083108260E072EC81E090E00E94D1
:1022000032080E945505789417CD813029F081302D
:1022100030F0823051F406C020E430E008C024E001
:1022200030E005C020E830E002C020E030E0C90125
:1022300008950F931F93CF93DF938C018091C40176
:10224000882341F4C0E0D0E002C036DF2196C017F9
:10225000D107D8F3DF91CF911F910F910895DF92AD
:10226000EF92FF920F931F93CF93DF937C01EB01CB
:10227000D42E84DC162F13701330D9F300E0113004
:1022800029F0113030F0123051F406C0E8EBF1E1E2
:1022900008C0E4E1F2E105C0E1EBF1E102C0E0E0F9
:1022A000F0E0C701BE014D2D0995882311F081E0B2
:1022B00008C01F5F133009F410E00F5F0330F9F618
:1022C00080E0DF91CF911F910F91FF90EF90DF9011
:1022D0000895DF92EF92FF920F931F93CF93DF93B6
:1022E0008C017B01EA01D22E8091C401882311F078
:1022F00009C0E2DEC801BE014D2DB1DF8823C9F35C
:10230000C70197DFDF91CF911F910F91FF90EF9061
:10231000DF90089545E050E023E0DBCF0F93FA0112
:10232000022F6230710591F06330710518F4672B4C
:1023300041F00AC06430710559F06630710521F42E
:102340000AC060E840E009C060E806C06FEF04C062
:1023500060E84FEF02C060E040E89F01E9DD0F91C7
:102360000895FC01DB01242F80E0BF01AD01D6CF31
:10237000FC01DB01242F81E0BF01AD01CFCFCF9263
:10238000DF92EF92FF920F931F93DF93CF9300D0D2
:1023900000D00F92CDB7DEB7C82ED62EF42E3A83DA
:1023A00029831C830B83ED828091C4018823D9F497
:1023B000E0914901F0914A01CE010196BE016D5FA5
:1023C0007F4FAE014B5F5F4F099501C075DE2B81DA
:1023D0003C818C2D6D2D4F2D0D81AADD8823B1F30D
:1023E00089819A8126DF0F900F900F900F900F90A8
:1023F000CF91DF911F910F91FF90EF90DF90CF90E1
:102400000895EF920F931F938901EE24B8DF1F9177
:102410000F91EF900895EF920F931F93EE24AFDF8B
:102420001F910F91EF9008958230910581F08330D4
:10243000910518F4892B39F008C08430910549F0D2
:10244000069719F408C080E007C088E005C082E064
:1024500003C084E001C086E0A2CD1F93DF93CF9339
:1024600000D000D00F92CDB7DEB7182F7A836983E2
:102470005C834B832D838091C4018823C9F4E09150
:102480004901F0914A01CE010196BE016D5F7F4F77
:10249000AE014B5F5F4F099501C00EDE6B817C8101
:1024A000812F4D817CDD8823C1F389819A81C1DE32
:1024B0000F900F900F900F900F90CF91DF911F9181
:1024C000089545E050E023E0C8CF23E0C6CFEF9267
:1024D000FF920F931F93CF93DF937C018091C401F0
:1024E000882329F510E0C0E0D0E01EC0112321F0C0
:1024F000E3DD2196115018C041DB162F1370133005
:10250000D9F300E0812F81DE65E070E043E069DD12
:10251000882311F013E008C01F5F133009F410E0A6
:102520000F5F033079F711E0CE15DF05F8F2DF9188
:10253000CF911F910F91FF90EF900895AF92BF92AE
:10254000CF92DF92EF92FF920F931F93CF93DF937F
:102550005C016B017A018091C401882309F03DC0C0
:10256000C0E0D0E002C0A8DD2196C50165E070E0C2
:1025700043E037DD8823B9F384E090E05ADE02C0FF
:102580009BDD2196C60165E070E043E02ADD8823EB
:10259000B9F3CE15DF0508F5C50165E070E043E04D
:1025A00020DD8E010C5F1F4FCE15DF05B0F484DDFA
:1025B0002196C017D107C1F7C60165E070E043E07E
:1025C00010DD8E010C5F1F4FCE15DF0530F474DD7A
:1025D0002196C017D107C1F7DFCFDF91CF911F91AF
:1025E0000F91FF90EF90DF90CF90BF90AF90089544
:1025F000EF92FF920F931F93CF93DF937C018B0198
:102600008091C401882369F4C0E0D0E007C0C7010D
:1026100065E070E043E0E5DC4FDD2196C017D107AF
:10262000B0F3DF91CF911F910F91FF90EF9008953C
:102630000F931F93DF93CF9300D000D00F92CDB7AD
:10264000DEB78C017A8369835C834B832D83809111
:10265000C4018823C9F4E0914901F0914A01CE01F7
:102660000196BE016D5F7F4FAE014B5F5F4F0995D5
:1026700001C022DD6B817C81C8014D81B2DC8823E1
:10268000C1F389819A81D5DD0F900F900F900F9043
:102690000F90CF91DF911F910F91089545E050E089
:1026A00023E0C6CF23E0C4CF8091C401882311F07A
:1026B000089502DDABDB8823E1F70895CF93DF9324
:1026C0000E94C00789E085DD88E696E19093C80105
:1026D0008093C7018091C401882329F01092C4011E
:1026E00080E00E940403C4DB0E94B209EC01009761
:1026F00089F3BC016E5F7F4F488140954650E09161
:10270000C701F091C80189810995882319F789814A
:102710000E946A0BDFCF882339F080E090E16AE005
:1027200070E04AE550E006C080E090E16AE070E0C9
:102730004EEB50E025DD80E090E16AE070E040E0A3
:1027400050E01ECDAF92BF92CF92DF92EF92FF92F8
:102750000F931F938C017B016A01590188E090E07F
:1027600062E370E045DF09581E4F88E090E064E0C6
:1027700070E0A801E3DE88E090E0B70139DFC60130
:10278000A6DEC501B1DC1F910F91FF90EF90DF90A5
:10279000CF90BF90AF90089588E090E064E670E03D
:1027A00027DF88E090E064E070E042E350E0C6DEBE
:1027B00088E090E060E971E01BCF0F931F938C01DC
:1027C00083E090E091DCC80160E070E0A3DD1F9140
:1027D0000F910895DF92EF92FF920F931F93CF9383
:1027E000DF93F42E282F30E0C90188549A4FFC0162
:1027F00094912E533A4FF9018491262F30E0F9013C
:10280000E854FA4FD4902E533A4FF901E490092F2F
:10281000182FC0E0D0E02AC0E11640F4FF2019F0E4
:1028200080E090E0CADF2396115020C01E1558F4B6
:10283000FF2019F084E090E0C0DF23961F5F133083
:10284000A9F401E013C00D1540F4FF2019F082E057
:1028500090E0B3DF23960F5F09C0D01638F4FF2055
:1028600019F086E090E0A9DF239601500D15A1F63E
:102870001E1591F6CE01DF91CF911F910F91FF9020
:10288000EF90DF900895EF92FF920F931F93E82E41
:10289000F62E82E090E064E070E03CDD82E090E0C3
:1028A00064E070E037DD84E090E063E070E032DD0A
:1028B00084E090E064E070E02DDD82E090E060E094
:1028C00070E028DD84E090E063E070E0E7DE84E023
:1028D00090E063E070E0E2DEFF2011F402E301C06B
:1028E00001E310E084E090E063E070E013DD1F5F3F
:1028F0001017C0F3FF2019F46DE270E002C068E227
:1029000070E082E090E006DD84E090E063E070E05B
:1029100001DD84E090E063E070E0FCDC84E090E0C6
:1029200063E070E0F7DC84E090E063E070E0F2DC0C
:10293000EE2031F484E090E06DE270E0AFDE18C08C
:1029400084E090E063E070E0A9DEFF2011F40CE089
:1029500001C00AE010E084E090E063E070E0DADCBF
:102960001F5F1017C0F384E090E060E070E0D2DCFD
:102970001F910F91FF90EF9008950F931F9388235D
:1029800019F413E004E002C012E003E084E090E0F8
:1029900064E170E04AE050E085DE80E090E060E0D5
:1029A00070E0B8DC84E090E0612F70E077DE82E0D8
:1029B00090E0602F70E0AEDC80E090E0612F70E08E
:1029C000A9DC82E090E0602F70E0A4DC84E090E07D
:1029D00060E070E063DE82E090E0602F70E09ADCFF
:1029E00082E090E0602F70E095DC82E090E060E0B3
:1029F00070E090DC84E090E064E170E04AE050E058
:102A000051DE1F910F910895FF920F931F93CF9363
:102A1000DF93F82E882309F458C0662311F404E0EC
:102A200001C003E084E090E064E170E04AE050E03F
:102A300039DE10E0CF2DD0E0219706C084E090E091
:102A400063E070E067DC1F5F812F90E08C179D07CB
:102A5000ACF384E090E060E070E05CDC84E090E067
:102A600063E070E01BDE82E090E0602F70E052DCFB
:102A700010E006C084E090E063E070E04BDC1F5F94
:102A8000812F90E08C179D07ACF384E090E060E02C
:102A900070E040DC84E090E063E070E0FFDD82E025
:102AA00090E0602F70E036DC82E090E0602F70E014
:102AB00031DC82E090E060E070E02CDC84E090E0CB
:102AC00064E170E04AE050E0EDDDDF91CF911F91CD
:102AD0000F91FF900895EF92FF920F931F93F82E9E
:102AE000062FE42E80E090E063E070E013DC10E05D
:102AF00006C082E090E063E070E00CDC1F5F1F1511
:102B0000C0F380E090E063E070E004DC84E090E0FB
:102B100068EC70E0C3DDEE2071F010E084E090E03E
:102B200063E070E0F7DB1F5F1431C1F780E090E0F5
:102B300063E070E0EFDB82E390E07BDB82E063E068
:102B400070E0BFDC06C084E090E063E070E0E2DBB0
:102B500001500023C1F71F910F91FF90EF9008954E
:102B60001F93182F862FD7DD8AE590E0BDDA112359
:102B700069F184E06AE070E0A4DC80E06AE070E083
:102B8000A0DC6091290170912A0184E090E04AE084
:102B900050E088DD86E06AE070E093DC6091290116
:102BA00070912A0184E090E079DD81E090E06AE0B4
:102BB00070E074DD86E06AE070E083DC60912B01F8
:102BC00070912C0184E090E069DD03C082E390E025
:102BD0008BDA1F9108959F92AF92BF92CF92DF92AE
:102BE000EF92FF920F931F93CF93DF93182F962EA0
:102BF0007A01E901D7DA5B016C0180E090E1B7016D
:102C00004AE050E04FDD183008F017E0812F60E017
:102C1000492D61DF84E090E0BE01EADC802F60E0B6
:102C20009FDF8CE291E060DABDDA9B01AC012A19EA
:102C30003B09C901DF91CF911F910F91FF90EF9058
:102C4000DF90CF90BF90AF909F900895CF93DF9388
:102C5000EA018823D1F0CB0147DA80E060E070E040
:102C60004AE050E032DC8AE090E06DE770E04AE054
:102C700050E018DD81E792E02ADC81E0C53FD8070B
:102C800040F0CE01845F914003C0CB0120DCCE0137
:102C90002BDADF91CF91089584E065E070E04FE09A
:102CA00050E013DC82E090E06CE370E04AE050E03A
:102CB000F9DC84E065E070E04FE050E006DC609114
:102CC0003B0170913C0182E090E04AE050E0EACCA8
:102CD0005F926F927F928F929F92AF92BF92CF92AC
:102CE000DF92EF92FF920F931F93DF93CF93CDB7B5
:102CF000DEB72C970FB6F894DEBF0FBECDBF182FEE
:102D00006B01042F8139B1F1823940F48138F1F03F
:102D1000803931F1803809F075C00CC0833909F46D
:102D200046C08339B0F1843909F450C0853909F0BF
:102D300069C05BC084E00E94530A882321F0802F81
:102D40000E94780BD2C70E94BE07CDC785E00E94C3
:102D5000530A882309F0C9C7F601848125DAC3C75D
:102D600086E00E94530A882309F0BFC7F6018481D8
:102D700095810CC48AE00E94530A882309F0B5C7E4
:102D8000F601668177814085518584819581F8D9E6
:102D9000AAC789E00E94530A882309F0A6C7F60152
:102DA00065817681478150858481D8D99CC78AE026
:102DB0000E94530A882309F098C7F601468157817B
:102DC0002085318584816581ADD98DC78AE00E94D7
:102DD000530A882309F089C7F60146815781208567
:102DE00031858481658182D97EC788E00E94530A3B
:102DF000882309F07AC7F6016681778184819581FD
:102E000071D971C780910002882309F49FC0173FD0
:102E100088F4153F08F055C0123F19F1133F20F414
:102E2000113F09F093C013C0133F41F1143F09F063
:102E30008DC036C0183F09F466C0183F08F455C06D
:102E4000193F09F400C11A3F09F080C06DC084E049
:102E5000B601402F0E94530A882309F046C724DC9C
:102E600042C786E0B601402F0E94530A882309F02A
:102E70003CC7F60184819581DCD935C78BE0B6016A
:102E8000402F0E94530A882309F02FC7F60166815C
:102E9000778140855185848195812285C9DB23C74F
:102EA0008AE0B601402F0E94530A882309F01DC70B
:102EB000F601658176814781508584812185CDDA4F
:102EC00012C78BE0B601402F0E94530A882309F0F5
:102ED0000CC7153F09F481E0F60126813781008592
:102EE000118564814581E284F2C088E0B601402FFB
:102EF0000E94530A882309F0F8C6F601668177819B
:102F00008481958133C68AE0B601402F0E94530A1E
:102F1000882309F0EAC6F6016681778140855185EC
:102F2000848195810BDBDFC68BE0B601402F0E94C8
:102F3000530A882309F0D9C6F60166817781408556
:102F40005185848195812285C4D9CDC6103FB9F4BD
:102F500088E0B601402F0E94530A882309F0C5C6B5
:102F6000F60184819581A681B7818D559444A2474D
:102F7000B74F09F0BCC681E080930002B4C61B3B8A
:102F800009F4B0C21C3B88F5133B09F4A2C0143B02
:102F9000C8F4123A09F464C0133A50F4103A09F430
:102FA00052C0113A08F0E8C11F3909F0A0C665C047
:102FB000113B09F4AEC0123B08F0BBC0103B09F056
:102FC00096C69AC0173B09F4E4C0183B38F4153B89
:102FD00009F4C6C0163B08F0CFC0B5C0193B09F4D0
:102FE0007DC11A3B08F051C21BC1133C09F460C4F7
:102FF000143C98F41F3B09F43DC3103C38F41D3BCE
:1030000009F490C21E3B08F0C4C27AC2113C09F414
:10301000B3C3123C08F0E5C372C3173C09F490C572
:10302000183C38F4153C09F4F8C4163C08F050C5B7
:10303000B3C4193C09F402C6193C08F49AC51A3CF9
:1030400009F055C61EC686E0B601402F0E94530AFD
:10305000882309F04AC6F6018481958138DA43C68F
:1030600086E0B601402F0E94530A882309F03DC62E
:10307000F6018481958110DE36C68CE0B601402FC2
:103080000E94530A882309F030C6F601F384848134
:10309000958160E070E04F2D50E020E0C9DAF60144
:1030A000868160E070E04F2D50E020E0D6D981E0CD
:1030B000F6016781408520E030E00F2D10E0EE241E
:1030C0005ED980E0F601618542852F2D30E057D929
:1030D0000AC68CE0B601402F0E94530A882309F0EB
:1030E00004C6F60166817781408551852285338546
:1030F0008481958127DBF7C586E0B601402F0E94C9
:10310000530A882309F0F1C5F6018481658128DD21
:10311000EAC589E0B601402F0E94530A882309F0CE
:10312000E4C5F601658176814781508584818EDD15
:10313000DAC584E0B601402F0E94530A882309F0C3
:10314000D4C52ADBD0C586E0B601402F0E94530AC1
:10315000882309F0CAC5F6018481658194DBC3C563
:1031600085E0B601402F0E94530A882309F0BDC5AF
:10317000F601848102DCB7C586E0B601402F0E94CB
:10318000530A882309F0B1C5F601848165813CDCCE
:10319000AAC585E0B601402F0E94530A882309F092
:1031A000A4C5F601148181E061E06DDB112399F182
:1031B0008CE361E029DC84E090E064E170E04AE0C7
:1031C00050E070DA86E090E063E070E0A3D886E03B
:1031D00090E063E070E09ED886E090E063E070E00D
:1031E00099D880E090E062E070E094D886E090E0CA
:1031F00063E070E08FD880E090E062E070E08AD811
:1032000086E090E063E070E085D880E090E062E0E6
:1032100070E080D802C081E0B0DB81E07CDA63C579
:1032200086E0B601402F0E94530A882309F05DC54D
:10323000F6010481158181E061E025DB84E090E006
:1032400064E170E04AE050E02DDA84E090E060E074
:1032500070E024DA82E090E063E070E05BD882E026
:1032600090E063E070E056D882E090E063E070E0C8
:1032700051D884E090E060E070E010DA82E090E005
:1032800063E070E047D886E090E063E070E042D809
:1032900080E090E062E070E03DD882E090E060E0A5
:1032A00070E038D884E090E064E170E04AE050E0FB
:1032B000F9D984E090E064E170E04AE050E0F2D9AE
:1032C00086E090E063E070E025D884E090E062E082
:1032D00070E020D880E090E1B801C8C187E0B60175
:1032E000402F0E94530A882309F0FFC4F60104818D
:1032F000E580F68081E060E0C6DA84E090E064E199
:1033000070E04AE050E0CED984E090E060E070E008
:10331000C5D982E090E063E070E00E948A1182E00B
:1033200090E063E070E00E948A1110E007C084E042
:1033300090E063E070E00E948A111F5F1017B8F3FD
:1033400084E090E060E070E0A9D982E090E063E082
:1033500070E00E948A1182E090E063E070E00E94D9
:103360008A1184E090E064E170E04AE050E09AD98C
:1033700080E090E1B7017AC18BE0B601402F0E9456
:10338000530A882309F0B1C4F601B480FCE0FB15B0
:1033900010F48CE0B82E30E020E0BE016F5F7F4F6C
:1033A000AE014E5F5F4F13C0F601E30FF11D958133
:1033B0003F5FE22FF0E0DB01AE0FBF1F892F8F7060
:1033C0008C93E40FF51F92959F7090832E5F2B15C1
:1033D00058F39924AA24FF24F3943E010894611C15
:1033E000711C42C0F301EA0DF11D0081FE01EB0DDD
:1033F000F11D1081003308F00053103308F0105312
:103400000A3008F000E01A3008F010E08F2D602F2D
:1034100040E0E0D96C018F2D612F40E0DBD98C15A5
:103420009D0508F4012F8F2D602F41E0D3D97C0139
:10343000009721F483E090E00E947410992029F015
:1034400080E190E060E070E029D984E090E060E005
:1034500070E024D9EC14FD0418F0A394992403C05F
:10346000BA9499249394F02EAB1408F4BBCF83E064
:1034700090E00E94741080E092E063E070E00ED96A
:1034800080E092E063E070E010C288E0B601402F77
:103490000E94530A882309F028C4F6010681178187
:1034A0006481758181E090E04AE050E0FBD880E0E3
:1034B00090E065E070E00E948A1180E090E065E0B5
:1034C00070E00E948A1182E090E065E070E00E9466
:1034D0008A1180E092E063E070E0E0D882E090E062
:1034E000B80144C387E0B601402F0E94530A8823E5
:1034F00009F0FBC3F601848165814681ECDAF3C3F0
:103500008BE0B601402F0E94530A882309F0EDC3D7
:10351000F601468157812085318584816581028548
:103520005ADBE1C38CE0B601402F0E94530A882386
:1035300009F0DBC3F6015480A580B68067807084F3
:10354000818492841385852D61E0A3019401012F6C
:1035500042DB6C017C010DC08091C401882309F01D
:10356000C2C3852D60E0A3019401012F34DBE80E76
:10357000F91EC7018C0D9D1DA816B90668F7EA143F
:10358000FB0408F0B0C3C5018E199F090E94741096
:10359000AAC384E0B601402F0E94530A882309F091
:1035A000A4C382E090E063E070E00E948A1182E0B0
:1035B00090E063E070E00E948A1182E090E063E0B6
:1035C00070E00E948A1182E090E063E070E00E9467
:1035D0008A1182E090E063E070E00E948A1182E04C
:1035E00090E063E070E00E948A1184E090E063E084
:1035F00070E00E948A1184E090E063E070E00E9435
:103600008A1186E090E060E070E00E948A1184E018
:1036100090E064E170E04AE050E044D882E090E05D
:1036200063E070E00E948A1182E090E063E070E065
:103630000E948A1182E090E063E070E00E948A11AB
:1036400082E090E063E070E00E948A1182E090E006
:1036500063E070E00E948A1182E090E060E070E038
:103660000E948A1184E090E064E170E04AE050E05A
:1036700019D839C384E0B601402F0E94530A882329
:1036800009F033C310E084E090E063E070E00E9452
:103690008A111F5F1D30B9F784E090E060E070E0B0
:1036A0000E948A1184E090E068E270E04AE050E015
:1036B0000E94521386E090E060E070E00E948A1160
:1036C00084E090E068E270E04AE050E00E9452132B
:1036D00080E090E060E070E00E948A1184E090E079
:1036E00063E070E00E944E1310E084E090E063E03D
:1036F00070E00E948A111F5F1D30B9F76BC085E032
:10370000B601402F0E94530A882309F0EEC2F60149
:10371000148184E090E06CE070E00E944E1384E03D
:1037200090E068E070E00E944E1386E090E063E075
:1037300070E00E948A1186E090E063E070E00E94F1
:103740008A1186E090E063E070E00E948A11112304
:1037500031F086E090E063E070E00E948A1110E0B2
:1037600084E090E063E070E00E948A111F5F1C33E8
:10377000B9F784E090E067C084E0B601402F0E9472
:10378000530A882309F0B1C210E080E090E063E0C2
:1037900070E00E948A111F5F1D30B9F780E090E051
:1037A00060E070E00E948A1184E090E06AE070E0DE
:1037B0000E944E1384E090E06FE070E00E944E1390
:1037C00010E084E090E063E070E00E948A111F5FE7
:1037D0001A30B9F784E090E060E070E00E948A114E
:1037E00082C285E0B601402F0E94530A882309F067
:1037F0007CC2F601148184E090E06FE070E00E94EA
:103800004E1384E090E065E070E00E944E131123B7
:1038100031F086E090E063E070E00E948A1186E07B
:1038200090E063E070E00E948A1186E090E063E03F
:1038300070E00E948A1186E090E063E070E00E94F0
:103840008A1180E090E060E070E00E948A1184E0DC
:1038500090E062E070E00E944E1382E090E063E04E
:1038600070E00E948A1182E090E063E070E00E94C4
:103870008A1182E090E060E070E00E948A1184E0AA
:1038800090E063E070E00E944E1382E090E063E01D
:1038900070E00E948A1182E090E062E070E00E9495
:1038A0008A1184E090E06CE070E00E944E131BC22D
:1038B00085E0B601402F0E94530A882309F015C203
:1038C000F60184818F3198F584E090E06FE070E03C
:1038D0000E944E1384E090E065E070E00E944E1379
:1038E00086E090E063E070E00E948A1186E090E05C
:1038F00063E070E00E948A1186E090E063E070E08F
:103900000E948A1186E090E063E070E00E948A11D4
:1039100080E090E060E070E00E948A1184E090E036
:1039200068E070E00E944E1380E090E0CCC084E03C
:1039300090E06CE070E00E944E1384E090E068E05C
:1039400070E00E944E1386E090E063E070E00E9419
:103950008A1186E090E063E070E00E948A1186E0C0
:1039600090E063E070E00E948A1180E090E063E004
:1039700070E00E948A1186E090E063E070E00E94AF
:103980008A1180E090E060E070E00E948A1184E09B
:1039900090E063E070E05FCF84E0B601402F0E94CA
:1039A000530A882309F0A1C184E090E06CE070E044
:1039B0000E944E1384E090E068E070E00E944E1395
:1039C00086E090E063E070E00E948A1186E090E07B
:1039D00063E070E00E948A1186E090E063E070E0AE
:1039E0000E948A1180E090E063E070E00E948A11FA
:1039F00086E090E063E070E00E948A1180E090E051
:103A000063E070E00E948A1186E090E063E070E07D
:103A10000E948A1180E090E04AC084E0B601402F05
:103A20000E94530A882309F060C184E090E06CE0B2
:103A300070E00E944E1384E090E068E070E00E9425
:103A40004E1386E090E063E070E00E948A1186E009
:103A500090E063E070E00E948A1186E090E063E00D
:103A600070E00E948A1180E090E063E070E00E94C4
:103A70008A1186E090E063E070E00E948A1180E0A5
:103A800090E063E070E00E948A1186E090E063E0DD
:103A900070E00E948A111CE384E090E063E070E033
:103AA0000E948A1111501130B9F784E090E060E073
:103AB00070E00E948A1184E090E062E070E00E9471
:103AC0004E1382E090E063E070E00E948A11C5CE60
:103AD00084E0B601402F0E94530A882309F005C1F3
:103AE00081E06FEF4FEF22E330E00E94011281E0AE
:103AF0006FEF40EA20E030E00EEF11E00E940B1281
:103B000084E090E06AEA70E00E944E1384E090E066
:103B10006AEA70E00E944E1384E090E06AEA70E086
:103B20000E944E1381E060E040E822E330E006E8C6
:103B300011E00E940B1282E090E066E871E0C3C0E1
:103B400086E0B601402F0E94530A882309F0CDC0B9
:103B5000F601E480F58081E06FEF40E820E030E09E
:103B600087010E940B1282E090E0B7010E94F812D8
:103B7000BAC086E0B601402F0E94530A882309F09C
:103B8000B4C0F601C480D580EE24FF2452C081E089
:103B900060E84FEF20E030E000E210E00E940B12FE
:103BA00084E090E060E170E00E944E1384E090E0D9
:103BB00060E170E00E944E1381E06FEF40E820E08A
:103BC00030E00E940B1284E090E060E170E00E941F
:103BD0004E1384E090E060E170E00E944E1381E0BB
:103BE00060E840E020E030E00E940B1284E090E0CA
:103BF00060E170E00E944E1384E090E060E170E0CC
:103C00000E944E1381E060E040E820E030E00E9436
:103C10000B1284E090E060E170E00E944E1384E0BB
:103C200090E060E170E00E944E1380E890E0E80EC2
:103C3000F91EEC14FD0408F4AACF55C084E0B601C7
:103C4000402F0E94530A882309F04FC081E06FEF94
:103C500040E924E630E00AEF10E00E940B1284E015
:103C600090E064E670E00E944E1384E090E062E32E
:103C700070E00E944E1381E06FEF4FEF22E330E0DF
:103C800030C084E0B601402F0E94530A882369F5B2
:103C900081E060E84FEF2EE130E00E94011281E008
:103CA0006FEF40E924E031E00E94011281E060E022
:103CB00040E822E330E000E911E00E940B1282E0CC
:103CC00090E060E971E00E94F81281E060EC40E071
:103CD00028E730E00E94011281E06FEF40E028E722
:103CE00030E00E9401120E94CD0981E001C080E015
:103CF0002C960FB6F894DEBF0FBECDBFCF91DF91EB
:103D00001F910F91FF90EF90DF90CF90BF90AF90F9
:103D10009F908F907F906F905F900895A1E21A2EF0
:103D2000AA1BBB1BFD010DC0AA1FBB1FEE1FFF1F5F
:103D3000A217B307E407F50720F0A21BB30BE40BAF
:103D4000F50B661F771F881F991F1A9469F76095F6
:103D50007095809590959B01AC01BD01CF010895B0
:103D6000FB01DC0102C005900D9241505040D8F794
:103D70000895FB01DC0102C001900D9241505040BA
:083D8000D8F70895F894FFCF75
:103D8800012003E8037800FA0064007D007701C889
:103D980000FA007701FA00C40977015F057D007118
:103DA80002500077016E007701F4017701E457149F
:103DB8000050005A002C012C01FA00FA0001000002
:103DC8000001000000381EE797090E0000088080F7
:043DD80080800000E7
:00000001FF
