:10000000DBC20000F8C20000F6C20000F4C200002B
:10001000F2C20000F0C20000EEC20000ECC200001C
:10002000EAC20000E8C200004CC50000E4C20000C3
:10003000E2C20000E0C20000DEC20000DCC200003C
:10004000DAC20000D8C20000D6C20000D4C200004C
:10005000D2C20000D0C20000CEC20000CCC200005C
:10006000CAC200000C94C0080C949108C4C20000DD
:10007000C2C20000C0C20000BEC20000BCC200007C
:10008000BAC20000B8C20000B6C20000B4C200008C
:10009000B2C20000B0C200000000000003836BF297
:1000A000F7703BE1F4F350131F979AC71C14F13516
:1000B000E8E7A126EB64CAD4CF58D98ACCDBB27862
:1000C0003828E26B3BAB8999D0CF434DD34C28BF46
:1000D00027BF78AC243C135E6FC75E106C4435E2DA
:1000E00098B765F19B340E037050C4D773D3AF2516
:1000F0008720FF3684A394C4A09F879AA31CEC6832
:1001000057EFBC7B546CD789BF081D5DBC8B76AFA5
:10011000487826BC4BFB4D4EDE8EBD20DD0DD6D281
:1001200029FE86C12A7DED33C11927E7C29A4C15F5
:1001300036691C0635EA77F411D664AA12550F58B1
:10014000E6A65F4BE52534B90E41FE6D0DC2959FC5
:10015000F931C58CFAB2AE7EB149E330B2CA88C279
:100160004639D8D145BAB323AEDE79F7AD5D120575
:1001700059AE42165A2D29E47E113ABA7D92514861
:100180008961015B8AE26AA96186A07D6205CB8FE5
:1001900096F69B9C9575F06EBC1D7B41BF9E10B37F
:1001A0004B6D40A048EE2B52A38AE186A0098A74C9
:1001B00054FADA675779B1957345A2CB70C6C9393D
:1001C0008435992A87B6F2D86CD2380C6F5153FE19
:1001D0009BA203ED9821681FD3DA2551D0594EA375
:1001E00024AA1EB027297542CC4DBF96CFCED46429
:1001F0003B3D847738BEEF851C82FCDB1F019729CD
:10020000EBF2C73AE871ACC80315661C00960DEE18
:10021000F4655DFDF7E6360F6293C6616110AD933C
:1002200095E3FD80966096727D045CA67E873754C8
:100230008A74674789F70CB5ADCB1FEBAE487419CC
:100240005ABB240A59384FF8B25C852CB1DFEEDE78
:10025000452CBECD46AFD53F0D5498710ED7F383D4
:10026000FA24A390F9A7C86212C302B611406944E8
:10027000E5B33957E63052A5C20C41FBC18F2A09BC
:10028000357C7A1A36FF11E8DD9BDB3CDE18B0CEF8
:100290002AEBE0DD29688B2F783BF6827BB89D70D6
:1002A0008F4BCD638CC8A69167AC6C45642F07B7A4
:1002B00090DC57A4935F3C56B7632F08B4E044FA30
:1002C000401314E943907F1BA8F4B5CFAB77DE3D14
:1002D0005F848E2E5C07E5DC17FCA892147FC36058
:1002E000E08C9373E30FF881086B32550BE859A744
:1002F000FF1B09B4FC986246D8A47118DB271AEAE0
:100300002FD44AF92C57210BC733EBDFC4B0802D13
:100310003043D03E33C0BBCCA6B54BA2A53620504F
:1003200051C5704352461BB1B922D165BAA1BA97E3
:100330004E52EA844DD1817669ED92286A6EF9DADF
:100340009E9DA9C99D1EC23B767A08EF75F9631D73
:10035000810A330E828958FCC97215B2CAF17E40F7
:100360003E022E533D8145A1D6E58F75D566E487C3
:100370002195B4942216DF66062ACC3805A9A7CAAF
:10038000F15AF7D9F2D99C2B19BD56FF1A3E3D0DF3
:10039000EECD6D1EED4E06ECC4268DC3C7A5E6312D
:1003A0003356B62230D5DDD0DBB11704D8327CF617
:1003B0002CC12CE52F4247170B7E544908FD3FBB4B
:1003C000FC0E6FA8FF8D045A14E9CE8E176AA57C27
:1003D000E399F56FE01A9E9DABE1D3D3A862B821F3
:1003E0005C91E8325F1283C0B4764914B7F522E617
:1003F000430672F54085190764B90A59673A61AB3B
:1004000093C931B8904A5A4A7B2E909E78ADFB6CC6
:100410008C5EAB7F8FDDC08D1AA830E3192B5B118A
:10042000EDD80B02EE5B60F0053FAA2406BCC1D6F6
:10043000F24F91C5F1CCFA37D5F0E969D673829BBA
:100440002280D2882103B97ACA6773AEC9E4185CE6
:100450003D17484F3E9423BD756F6EF376EC050152
:10046000821F5512819C3EE06AF8F434697B9FC676
:100470009D88CFD59E0BA427BA37B779B9B4DC8B4A
:100480004D478C984EC4E76AA5A02DBEA623464CC6
:1004900052D0165F51537DAD05010905A10115002C
:1004A000250135004501750195100509190129102F
:1004B000810205012507463B017504950165140974
:1004C00039814265009501810126FF0046FF000940
:1004D000300931093209357508950481020600FF9B
:1004E0000920950181020A212695089102C0120176
:1004F0000002000000400D0F920000010102000107
:100500000902290001010080FA0904000002030029
:1005100000000921110100012256000705020340D5
:10052000000807058103400008040309041C034870
:10053000004F0052004900200043004F002E002CC5
:10054000004C00540044002E000000240350004FD3
:10055000004B004B0045004E00200043004F004E72
:1005600000540052004F004C004C00450052000067
:1005700000D5738162EED5E1EB87FB3290FD4C66CE
:10058000EF8B83F4D8CD3598F89A0708C5E3DEEFF2
:1005900034208E99125EC41094D3948A0D8A77CD3C
:1005A000128360E601000102000102000102030063
:1005B000000001010102020211241FBECFEFD0E2B0
:1005C000DEBFCDBF11E0A0E0B1E0E2E6FDE300E078
:1005D0000BBF02C007900D92A435B107D9F712E006
:1005E000A4E5B1E001C01D92AA36B107E1F70E946F
:1005F0004B130C94AF1E04CD882311F05E9A08951E
:100600005E980895569A80E0F7CF9C0140910C02C5
:1006100050910D024617570718F4F90190E03DC0BC
:100620006115710511F0AB01F8CF8091E8008E776C
:100630008093E80040E050E0F0CF809105028823ED
:1006400009F441C0853009F440C08091E80083FD81
:100650003EC08091E80082FD30C08091E80080FFBC
:100660001CC02091F2003091F30007C0819180936B
:10067000F100415050402F5F3F4F4115510519F097
:100680002034310598F390E02034310509F491E0ED
:100690008091E8008E778093E8004115510569F656
:1006A000992359F60AC080910502882361F08530AC
:1006B00061F08091E80083FD0AC08091E80082FF2C
:1006C000F2CF80E0089582E0089583E0089581E00C
:1006D00008959C0140910C0250910D024617570756
:1006E00018F4F90190E03EC06115710511F0AB01FD
:1006F000F8CF8091E8008E778093E80040E050E0EA
:10070000F0CF80910502882309F442C0853009F4B6
:1007100041C08091E80083FD3FC08091E80082FDE8
:1007200031C08091E80080FF1DC02091F20030911F
:10073000F30008C084918093F100319641505040FD
:100740002F5F3F4F4115510519F02034310590F3CB
:1007500090E02034310509F491E08091E8008E7733
:100760008093E8004115510561F6992351F60AC0BE
:1007700080910502882361F0853061F08091E80066
:1007800083FD0AC08091E80082FFF2CF80E00895E7
:1007900082E0089583E0089581E00895BF92CF92AA
:1007A000DF92EF92FF920F931F93CF93DF93182F57
:1007B000092F7B016A01EFD0B82E8823B1F5812F74
:1007C000902F9C01E901C114D10439F0F601808118
:1007D0009181E81AF90AC80FD91F00E010E022C081
:1007E0008091E80085FD16C08091E8008B778093AA
:1007F000E800A2D3C114D10449F0F60180819181AF
:10080000800F911F9183808385E010C0C4D088231E
:1008100049F00CC08091F10089930894E108F10837
:100820000F5F1F4FE114F104D9F68B2DDF91CF91AB
:100830001F910F91FF90EF90DF90CF90BF900895A0
:10084000BF92CF92DF92EF92FF920F931F93CF93BD
:10085000DF93182F092F7B016A019DD0B82E8823C2
:10086000B1F5812F902F9C01E901C114D10439F019
:10087000F60180819181E81AF90AC80FD91F00E0BA
:1008800010E022C08091E80085FD16C08091E8004C
:100890008E778093E80050D3C114D10449F0F6015B
:1008A00080819181800F911F9183808385E010C0AA
:1008B00072D0882349F00CC089918093F10008948C
:1008C000E108F1080F5F1F4FE114F104D9F68B2DF9
:1008D000DF91CF911F910F91FF90EF90DF90CF901C
:1008E000BF900895382F282F2EC0822F8F708093AD
:1008F000E900231721F4762F942F50E006C0709161
:10090000EC009091ED005091F00091FF1BC08091A0
:10091000EB008E7F8093EB008091ED008D7F8093C4
:10092000ED008091EB0081608093EB007093EC0010
:100930009093ED005093F0008091EE0087FD02C08F
:1009400080E008952F5F273080F23F703093E900F8
:1009500081E008958091060288239CF404C0809170
:1009600005028823B9F08091E80082FFF8CF8091DA
:10097000E8008B778093E800089580910502882332
:1009800049F08091E80080FFF8CF8091E8008E77F1
:100990008093E80008954091E4005091E50024E63A
:1009A0008091EC0080FF24C08091E80080FD1EC093
:1009B00080910502882311F482E00895853011F4B6
:1009C00083E008958091EB0085FF02C081E00895E7
:1009D0008091E4009091E5008417950709F32223A4
:1009E00011F484E008952150AC01DACF80E008953D
:1009F0008091E80082FFDCCFF9CFEF92FF920F9356
:100A00001F9352D059D008ED10E0F80180818F7704
:100A1000808380818068808380818F7D8083E7ED03
:100A2000F0E080818068808319BC109205021092EA
:100A30000102109203021092020280EEE82EF12CC5
:100A4000F70180818B7F8083F801808181608083C2
:100A500080E060E042E346DFE1EEF0E080818E7FFF
:100A60008083E2EEF0E08081816080838081886015
:100A70008083F70180818E7F8083F801808180618F
:100A800080831F910F91FF90EF900895E8EDF0E0C3
:100A900080818F7E8083E7EDF0E0808181608083BC
:100AA00081E080930402A9CFE8EDF0E080818C7FA3
:100AB00080831092E20008951092DA001092E10013
:100AC00008951F920F920FB60F920BB60F9211243A
:100AD0002F933F934F935F936F937F938F939F9346
:100AE000AF93BF93EF93FF938091E10082FF0AC021
:100AF0008091E20082FF06C08091E1008B7F8093AD
:100B0000E10019D28091DA0080FF1DC08091D800E9
:100B100080FF19C08091DA008E7F8093DA00809187
:100B2000D90080FF0CC084E189BD86E189BD09B48C
:100B300000FEFDCF81E08093050296D304C019BC6E
:100B40001092050292D38091E10080FF18C080913D
:100B5000E20080FF14C08091E2008E7F8093E2006B
:100B60008091E20080618093E2008091D8008062F1
:100B70008093D80019BC85E080930502DCD1809178
:100B8000E10084FF2FC08091E20084FF2BC084E14C
:100B900089BD86E189BD09B400FEFDCF8091D800F2
:100BA0008F7D8093D8008091E1008F7E8093E1005B
:100BB0008091E2008F7E8093E2008091E20081606C
:100BC0008093E20080910102882311F084E007C045
:100BD0008091E30087FD02C081E001C083E0809343
:100BE0000502A9D18091E10083FF22C08091E2003B
:100BF00083FF1EC08091E100877F8093E10082E047
:100C000080930502109201028091E1008E7F809313
:100C1000E1008091E2008E7F8093E2008091E2000B
:100C200080618093E20080E060E042E35BDE83D19C
:100C3000FF91EF91BF91AF919F918F917F916F91B4
:100C40005F914F913F912F910F900BBE0F900FBE70
:100C50000F901F9018951F93DF93CF93CDB7DEB7FA
:100C6000AC970FB6F894DEBF0FBECDBFE6E0F2E062
:100C70008091F100819322E0EE30F207C9F7F6D2BD
:100C80008091E80083FF3FC1809106023091070206
:100C9000353009F48DC0363040F43130E1F1313077
:100CA00070F0333009F02FC136C0383009F4FDC080
:100CB000393009F40CC1363009F025C19CC08038A8
:100CC00021F0823809F01FC108C090910202809182
:100CD00003028823B1F0926014C080910A028F70E1
:100CE000873008F010C18093E9008091EB0090E01C
:100CF00025E0969587952A95E1F7982F91701092A7
:100D0000E9008091E800877F8093E8009093F100EC
:100D10001092F100D5C0882319F0823009F0F3C099
:100D200090E08F719070009721F0029709F0EBC06E
:100D30000CC080910802813009F0E5C010920302D6
:100D4000333081F5809303022DC0809108028823FF
:100D500049F520910A022F70822F8150863008F0C9
:100D6000D2C02093E9008091EB0080FF1BC033309C
:100D700021F48091EB00806213C08091EB008061D0
:100D80008093EB0081E090E002C0880F991F2A95C4
:100D9000E2F78093EA001092EA008091EB0088600D
:100DA0008093EB001092E9008091E800877F8BC070
:100DB000882309F0A8C0109108021F778091E300F2
:100DC0008078812B8093E3008091E800877F809377
:100DD000E800C0DD8091E80080FFFCCF8091E30057
:100DE00080688093E300112311F482E001C083E066
:100DF0008093050288C08058823008F084C08091BA
:100E000008029091090223E08C3D920709F033C05B
:100E100083E08C838AE28B837FB7F894DE0115969A
:100E20006EE040E050E011E2E62FF0E01093570052
:100E3000849140FF03C082958F706F5F8F70282F61
:100E400030E08A3018F0C901C79602C0C901C096C7
:100E50008D939D934F5F5F4F4431510529F77FBFBD
:100E60008091E800877F8093E800CE0103966AE2D4
:100E700070E0CBDB14C060910A0270910B02AE01EE
:100E80004F5F5F4FA8D1BC01009709F43CC080912F
:100E9000E800877F8093E80089819A811ADC80913D
:100EA000E8008B778093E8002EC0803861F5809150
:100EB000E800877F8093E800809101028093F10031
:100EC0008091E8008E778093E80044DD1CC0882381
:100ED000D1F4909108029230B0F48091E800877FBD
:100EE0008093E8009093010235DD80910102882310
:100EF00031F48091E30087FD02C081E001C084E00D
:100F00008093050222D28091E80083FF0AC080917D
:100F1000E800877F8093E8008091EB0080628093F7
:100F2000EB00AC960FB6F894DEBF0FBECDBFCF91ED
:100F3000DF911F91089508951F93809105028823E2
:100F400071F01091E9008091EC001092E90080911D
:100F5000E80083FF01C07FDE1F701093E9001F913E
:100F6000089581E049CB4ECB08956F927F928F9286
:100F70009F92AF92BF92CF92DF92EF92FF920F9328
:100F80001F93DF93CF9300D000D0CDB7DEB77B01A6
:100F90008C014A015901CC24DD243E010894611CD6
:100FA000711C20C0F401EC0DFD1D60816E2570E008
:100FB000660F771F660F771F68567F4FC30144E0A7
:100FC00050E00E949D1EEF2CF02E012F11278981E9
:100FD0009A81AB81BC81E826F9260A271B27089451
:100FE000C11CD11CCA14DB04E8F2B701C8010F9080
:100FF0000F900F900F90CF91DF911F910F91FF9065
:10100000EF90DF90CF90BF90AF909F908F907F90A8
:101010006F900895EF92FF920F931F937C018B01C5
:10102000045010406FEF7FEF8FEF9FEFA701980103
:101030009CDF0E0D1F1DF8016083718382839383F3
:101040001F910F91FF90EF9008959B01AC01F894D0
:1010500060E079E08DE390E00E947B1E21503040FB
:101060004040504056954795379527953093CD0091
:101070002093CC0082E08093C80088E98093C90067
:1010800086E08093CA001092670180916701809387
:1010900066011092B1018091B1018093B001789402
:1010A0000895909166019F5F923108F090E08091E1
:1010B000670120E0891321E0822F0895282F909165
:1010C00066019F5F923108F090E080916701891777
:1010D000E1F3E92FF0E0EC5AFE4F20839093660194
:1010E00088EB8093C90008959091B0018091B1017F
:1010F00020E0981321E0822F08959091B001809113
:10110000B1019817D1F39091B1019F5F983408F025
:1011100090E0E92FF0E0E859FE4F80819093B10113
:1011200008951F920F920FB60F920BB60F921124D3
:101130008F939F93EF93FF93909166018091670146
:10114000981721F488E98093C9000FC09091670136
:101150009F5F923108F090E0E92FF0E0EC5AFE4FEB
:1011600080818093CE0090936701FF91EF919F91D2
:101170008F910F900BBE0F900FBE0F901F90189580
:101180001F920F920FB60F920BB60F9211242F934E
:101190008F939F93EF93FF932091CE009091B00196
:1011A0009F5F983408F090E08091B101981739F072
:1011B000E92FF0E0E859FE4F20839093B001FF91B2
:1011C000EF919F918F912F910F900BBE0F900FBEBB
:1011D0000F901F901895DA019330B1F0943028F4F5
:1011E000913041F0923079F50AC0913211F192328A
:1011F00051F524C0EEEEF4E022E130E028C0E0E05A
:10120000F5E029E230E023C0813049F0813018F068
:101210008230C9F40AC0E9E2F5E0849103C0EDE24E
:10122000F5E08491282F30E012C0EBE4F5E08491E2
:10123000F9CFE2E1F5E029E030E009C0E8E9F4E0C7
:1012400026E530E004C0E0E0F0E020E030E0ED939F
:10125000FC93C90108956091B2017091B30180912E
:10126000B4019091B501089508950895089564CE4C
:1012700008950F931F93DF93CF93CDB7DEB72F97CA
:101280000FB6F894DEBF0FBECDBF288739874A87D7
:101290005B876C877D878E879F878091050284306E
:1012A00009F047C082E08093E9008091E80082FF66
:1012B00014C08091E80085FF0BC08E010F5F1F4FA7
:1012C000C80167E070E040E050E068DA8823C1F7C9
:1012D0008091E8008B778093E80081E08093E900BB
:1012E0008091E80080FF25C08E01085F1F4FC80174
:1012F00068E070E040E050E0A3DA8823C1F7809115
:10130000E8008E778093E8008091B2019091B3015C
:10131000A091B401B091B5010196A11DB11D8093BA
:10132000B2019093B301A093B401B093B50181E0F1
:1013300001C080E02F960FB6F894DEBF0FBECDBF80
:10134000CF91DF911F910F91089582E060EC42E30D
:10135000C9DA81E061EC42E3C5CA9091BB0180919A
:10136000BC01891719F420E030E010C0892F90E00B
:1013700083709070880F991F9C0143E0220F331FE8
:101380004A95E1F7281B390B225F3D4FC9010895AB
:101390000F931F93CF93DF938091C401882309F0AB
:1013A00043C08091BB0190E083709070880F991FBB
:1013B000FC0163E0EE0FFF1F6A95E1F7E81BF90BF4
:1013C000E25FFD4F8DEE808385E481838F010E5FA8
:1013D0001F4F82819381A481B581E8018C839D8315
:1013E000AE83BF8380913D0190913E01A0913F016A
:1013F000B091400182839383A483B5830196A11D9C
:10140000B11D80933D0190933E01A0933F01B093A5
:10141000400121DFF801608771878287938780917F
:10142000BB018F5F8093BB01DF91CF911F910F9123
:101430000895CF93DF93EC010EDF6093B6017093B4
:10144000B7018093B8019093B9016091BA0180917E
:10145000BB01861701F1862F90E083709070FC012C
:10146000B3E0EE0FFF1FBA95E1F7E81BF90BEE0FA3
:10147000FF1FE05FFD4F288139814A815B818081B8
:101480009181A281B381281739074A075B0719F4B4
:101490006F5F6093BA01DF91CF910895481711F4FF
:1014A00080E00895842F1FD181E008950F931F934A
:1014B0008C011092BA011092BB011092BC011092E3
:1014C000BD01AFD4F8016081718182819381A9D07F
:1014D0001F910F910895FC012091BC01622F70E0D3
:1014E0008091BA01AB01481B51094430510514F0F9
:1014F00080E008954081409544502F5F2093BC01C7
:10150000CB0183709070880F991F9C0153E0220FCC
:10151000331F5A95E1F7281B390B225F3D4FC90154
:10152000BF0150E00E94A61E81E008959091BB018A
:101530008091BA01981709F440C02091BD01291784
:1015400021F12F5F2093BD01215030E023703070D6
:10155000220F331FC90173E0880F991F7A95E1F7B5
:10156000821B930B825F9D4FA4D19091BD0180910E
:10157000BB01981701F56FDE6093B6017093B70158
:101580008093B8019093B90116C065DE2091B60131
:101590003091B7014091B8015091B901621B730BB2
:1015A000840B950B605872408040904030F08091E1
:1015B000BA018093BD0181E0089580E008956A5FDB
:1015C0006093C001962F90959093460280934702B6
:1015D00086E492E070E01ECDEF92FF920F931F938E
:1015E0007B018C018091C001882311F080E014C040
:1015F000E0924802F092490200934A0210934B0293
:1016000020934C0230934D0240934E0250934F0270
:1016100084E168E0D4DF81E01F910F91FF90EF90AB
:1016200008959B01AC018091C001882311F080E0F6
:101630000895209348023093490240934A02509300
:101640004B0281E164E0BBDF81E008959B01AC01C6
:101650008091C001882311F080E008952093480212
:101660003093490240934A0250934B0280E164E078
:10167000A6DF81E008959C018091C001882311F0CC
:1016800080E00895309349022093480287E062E0A9
:1016900096DF81E008956093480270934902809339
:1016A0004A0290934B0286E064E089DF81E008956E
:1016B000609348027093490280934A0290934B02D0
:1016C00085E064E07CDF81E008958093480283E058
:1016D00061E075DF81E008958093480282E061E077
:1016E0006EDF81E008958093480281E061E067DF6A
:1016F00081E008958091C001882311F080E0089571
:1017000080E060E05CDF81E00895EF92FF920F934C
:101710001F93FB01833409F470C0843440F4813496
:1017200031F1823408F040C0803439F408C0843488
:1017300009F484C0863409F48EC080E096C0443039
:1017400009F08BC080819181A281B3810196A11D96
:10175000B11D8093410190934201A0934301B09346
:10176000440160817181828193815BDF7DC044305F
:1017700009F073C08EE08093C00181EF8093460230
:1017800084E18093470280819181A281B38180931B
:10179000480290934902A0934A02B0934B028BE017
:1017A00091E8A6E7B8E71CC0443009F056C08EE0C7
:1017B0008093C00181EF8093460284E180934702C9
:1017C00080819181A281B3818093480290934902E4
:1017D000A0934A02B0934B0288EE98ECA6E7B8E7D4
:1017E00080934C0290934D02A0934E02B0934F020F
:1017F00086E492E06EE070E01FC0443071F58BE04B
:101800008093C00184EF8093460282E18093470277
:1018100080819181A281B381809348029093490293
:10182000A0934A02B0934B028091BE0180934C0278
:1018300086E492E06BE070E0EDDB16C0443069F4C2
:10184000E080F1800281138106DD9B01AC01C801BB
:10185000B701C2DE09C0443019F0842F44DF04C050
:10186000222311F0CB0122DE81E01F910F91FF9026
:10187000EF900895833018F4813038F414C0843028
:1018800021F0813161F080E0089582E18093C00110
:10189000E6E4F2E0DF011D928A95E9F704C04430E6
:1018A00021F0842F20DF81E00895CB01C2DD81E0AB
:1018B00008950F931F93FC01208120952093C00170
:1018C00006E412E030E024503040C801BF01A90115
:1018D0000E94A61E6091C001C80170E09BDB1F91B1
:1018E0000F9108950F931F93FFDB882319F4109233
:1018F000C20168C01091C10100DCE12FF0E0E85A9C
:10190000FD4F80831F5F1093C10180915802082F03
:101910000095113059F5882359F41092C101809136
:10192000C201813009F0E6DE81E08093C2014AC045
:10193000063010F00331D0F01092C1018091C20145
:10194000823011F0802FCFDE82E08093C20139C057
:10195000CBDB8823B1F11091C101CFDBE12FF0E0A7
:10196000E85AFD4F80831F5F1093C1012091C10190
:10197000201770F330E0245030406FEF7FEF8FEF8F
:101980009FEF48E552E0F1DAE091C101F0E0EC5A56
:10199000FD4F208131814281538162177307840793
:1019A000950759F01092C1018091C201823049F02F
:1019B000802F92DE0093C00104C01092C20182E029
:1019C00001C081E01F910F9108958091C00188238B
:1019D00089F4089566DB882311F481E008959091DD
:1019E000BF01E92FF0E0EA5BFD4F80819F5F90939C
:1019F000BF0164DB9091BF018091C001981750F343
:101A00001092BF011092C00180E00895BF92CF9262
:101A1000DF92EF92FF920F931F93D7DF882309F095
:101A200091C060DF882311F481DD8DC0813009F41D
:101A300089C0B090C1018AEFB80E1092C101D09058
:101A400059028FE38D1548F08D2D6AE572E04B2D1C
:101A500011DF882309F076C053C0E0905A02F0905D
:101A60005B0200915C0210915D0220914101309176
:101A700042014091430150914401CC24E216F30607
:101A80000407150719F4CC24C39412C0D801C70168
:101A9000821B930BA40BB50B181619061A061B060E
:101AA0003CF480E4D81621F0CA01B90101DE4AC035
:101AB0008D2D807C8034C1F48D2D6AE572E04B2D34
:101AC0002C2D23DE882369F4E091C501F091C60135
:101AD0003097B1F08D2D6AE572E04B2D0995882382
:101AE00079F0CC2079F117C0CC2021F4C801B701DE
:101AF000ADDD28C08091C7019091C801892B19F4F0
:101B00008D2DE3DD1FC088E592E0E5DC8823B9F088
:101B1000C801B7019BDD8091410190914201A091E4
:101B20004301B09144010196A11DB11D8093410173
:101B300090934201A0934301B093440103C0C801B4
:101B4000B701A9DD81E01F910F91FF90EF90DF9029
:101B5000CF90BF900895EF92FF920F931F93209123
:101B60004501309146014091470150914801DA0109
:101B7000C9016DE0880F991FAA1FBB1F6A95D1F795
:101B800082279327A427B5277C018D0121E1169593
:101B90000795F794E7942A95D1F7E826F9260A27BE
:101BA0001B27A801970185E0220F331F441F551FF3
:101BB0008A95D1F72E253F254027512720934501AF
:101BC000309346014093470150934801B901CA013F
:101BD0001F910F91FF90EF900895FC01DB0111829E
:101BE00010821D921C92FA0110820895089590E0CF
:101BF000FC01EF58FA4FE49123E3629FB0011124F6
:101C0000680F791FE62787EC90E0E89F802D11246C
:101C100008951F93CF93DF93CDECD1E010E0812F97
:101C20006091CC01E4DF89931F5F1333C1F7DF912B
:101C3000CF911F910895DF92EF92FF920F931F9320
:101C400093E0899FC0011124F82EE090CC016E2D05
:101C5000CEDFD82E0F2D10E08F2D8F5F6E2DC7DFBA
:101C600003531E4FF8019181582F592740E02081DE
:101C70002D2530E0242B352BC9011F910F91FF90AA
:101C8000EF90DF9008950F931F9393E0899F800159
:101C900011240E5F802F6091CC01A9DFEDECF1E003
:101CA000E00FF11D9081892790E01F910F91089519
:101CB0001F93182FC0DF892B19F080E090E009C036
:101CC000812FE1DF20E0892B09F021E081E0282746
:101CD000822F1F910895DF92EF92FF920F931F932F
:101CE000F62EE72E93E0899FC0011124D82E082FED
:101CF00010E06091CC017BDF03531E4FF826F80102
:101D0000F0828D2D8F5F6091CC0171DFE826F801A4
:101D1000E1821F910F91FF90EF90DF900895FF9265
:101D20000F931F93F62E93E0899F800111240E5F7D
:101D3000802F6091CC015BDFEDECF1E0E00FF11D55
:101D4000F826F0821F910F91FF900895EF92FF9275
:101D50000F931F93CF93DF938091CB01882309F4D6
:101D60003BC000914B0110914C01C0E0D0E071E00C
:101D7000E72EF12C8C2F5FDF892B59F4C7010C2E35
:101D800002C0880F991F0A94E2F780959095082366
:101D900019232196CE30D10569F710934C01009399
:101DA0004B018EE048DF892B19F488E080934D01C8
:101DB0008FE041DF892B29F480E880934E018093E6
:101DC0004F0180E138DF892B29F480E880935001AE
:101DD000809351011092CB01DF91CF911F910F9110
:101DE000FF90EF90089580914B0190914C01892BC9
:101DF000A9F480914D01883089F480914E0180389A
:101E000069F480914F01803849F480915001803805
:101E100029F490E080915101803809F091E0892FF8
:101E200008951F9381E08093C4018093CB0110E05B
:101E3000812F60E070E04FDF812F60E070DF1F5F77
:101E40001131B1F783DF1F910895FF920F931F9314
:101E5000CF93DF937BDF20914B0130914C01409178
:101E60004D0150914E0160914F0170915001809150
:101E7000510190915201FDD9F82EF9D9FF2011F4AA
:101E800011E037C010E0812FD6DEEC01812FFBDEA0
:101E9000682F8091C401882321F000E0C0E0D0E0E9
:101EA00007C0062F209711F0219702C06111015041
:101EB0008091CC018F5F8093CC01812FBE010BDF1D
:101EC000812F602F2CDF8091CC0181508093CC0139
:101ED0008F5F1F5F1131B9F68093CC0181E0809351
:101EE000CB01E091C901F091CA01309709F0099541
:101EF00012E38CDD882311F01150D9F78F2DDF917B
:101F0000CF911F910F91FF900895DF92EF92FF9272
:101F10000F931F93CF93DF93F82EE62ED42EE90173
:101F20008091C401882319F090DF81E01DC0FF205B
:101F300011F410E101C01FE0812FBADE8823A1F067
:101F4000812FBE01C8DE812F602FE9DEFF2029F03E
:101F5000E0924E01D0924F0104C0E0925001D09225
:101F6000510181E08093CB01DF91CF911F910F91BF
:101F7000FF90EF90DF9008950F931F93CF93DF931F
:101F8000082FEB01142F8091C401882319F05DDF25
:101F900081E00FC08EE08CDE882359F08EE0BE0118
:101FA0009ADE8EE0612FBBDE00934D0181E08093CD
:101FB000CB01DF91CF911F910F9108956F927F9286
:101FC0008F929F92AF92BF92CF92DF92EF92FF9249
:101FD0000F931F93CF93DF936C015B01742E80915D
:101FE000C401882311F031DF44C0C0E0D0E001E03B
:101FF00010E0C8010C2E02C0880F991F0A94E2F766
:102000008C219D21892B21F08C2F52DE882391F188
:102010002196CE30D10569F700914B0110914C010A
:10202000C0E0D0E0E1E08E2E912C66246394740130
:102030000C2E02C0EE0CFF1C0A94E2F7C7018C21A3
:102040009D21892B71F08C2F33DE882351F08C2F4A
:10205000B50141DE8C2F672D62DE0E291F296092AB
:10206000CB012196CE30D10511F710934C0100938E
:102070004B0181E0DF91CF911F910F91FF90EF9085
:10208000DF90CF90BF90AF909F908F907F906F9098
:1020900008951F9311E005C010E08091C4018823CA
:1020A00061F4D3DE8823C1F3112339F08091C40198
:1020B000882319F481E090E0DEDA1F91089585C24B
:1020C0000895A4C00895EF920F931F93CF93DF93C9
:1020D000982F762F8A01E9014830510510F408E065
:1020E00010E080E0692F472F9801EE2435D1CE0112
:1020F000E8DFDF91CF911F910F91EF900895EF925C
:102100000F931F93CF93DF93982F762F8A01E901C6
:102110004830510510F408E010E081E0692F472FA6
:102120009801EE2419D1CE01CCDFDF91CF911F9120
:102130000F91EF900895CF93DF939B01EA016530F3
:10214000710510F425E030E0B901A90120E072D159
:10215000CE01B7DFDF91CF910895CF93DF939B013D
:10216000EA016530710510F425E030E0B901A901FC
:1021700020E04BD2CE01A5DFDF91CF9108956BC84F
:1021800008950F931F930091490110914A012DEE7C
:102190003DE030934A01209349010E94FC021093D4
:1021A0004A01009349011F910F9108958093BE0148
:1021B00084B7877F84BF88E10FB6F894809360006E
:1021C000109260000FBEE1E6F0E080E880831082AC
:1021D00060E072EC81E090E00E9425080E944605D4
:1021E000789417CD813029F0813030F0823051F46D
:1021F00006C020E430E008C024E030E005C020E85C
:1022000030E002C020E030E0C90108950F931F9331
:10221000CF93DF938C018091C401882341F4C0E007
:10222000D0E002C036DF2196C017D107D8F3DF9186
:10223000CF911F910F910895DF92EF92FF920F932C
:102240001F93CF93DF937C01EB01D42E84DC162FF8
:1022500013701330D9F300E0113029F0113030F051
:10226000123051F406C0E5EAF1E108C0E1E0F2E124
:1022700005C0EEE9F1E102C0E0E0F0E0C701BE0117
:102280004D2D0995882311F081E008C01F5F1330A0
:1022900009F410E00F5F0330F9F680E0DF91CF9191
:1022A0001F910F91FF90EF90DF900895DF92EF92D2
:1022B000FF920F931F93CF93DF938C017B01EA0171
:1022C000D22E8091C401882311F009C0E2DEC8013A
:1022D000BE014D2DB1DF8823C9F3C70197DFDF9120
:1022E000CF911F910F91FF90EF90DF90089545E0FF
:1022F00050E023E0DBCF0F93FA01022F623071052B
:1023000091F06330710518F4672B41F00AC0643016
:10231000710559F06630710521F40AC060E840E0AB
:1023200009C060E806C06FEF04C060E84FEF02C06C
:1023300060E040E89F01E9DD0F910895FC01DB01B9
:10234000242F80E0BF01AD01D6CFFC01DB01242F9B
:1023500081E0BF01AD01CFCFCF92DF92EF92FF922C
:102360000F931F93DF93CF9300D000D00F92CDB780
:10237000DEB7C82ED62EF42E3A8329831C830B8316
:10238000ED828091C4018823D9F4E0914901F09154
:102390004A01CE010196BE016D5F7F4FAE014B5FDA
:1023A0005F4F099501C075DE2B813C818C2D6D2D11
:1023B0004F2D0D81AADD8823B1F389819A8126DF13
:1023C0000F900F900F900F900F90CF91DF911F9172
:1023D0000F91FF90EF90DF90CF900895EF920F93C1
:1023E0001F938901EE24B8DF1F910F91EF9008959C
:1023F000EF920F931F93EE24AFDF1F910F91EF9099
:1024000008958230910581F08330910518F4892B6D
:1024100039F008C08430910549F0069719F408C0D6
:1024200080E007C088E005C082E003C084E001C00E
:1024300086E0A2CD1F93DF93CF9300D000D00F9200
:10244000CDB7DEB7182F7A8369835C834B832D83E6
:102450008091C4018823C9F4E0914901F0914A01B7
:10246000CE010196BE016D5F7F4FAE014B5F5F4FA6
:10247000099501C00EDE6B817C81812F4D817CDD51
:102480008823C1F389819A81C1DE0F900F900F904C
:102490000F900F90CF91DF911F91089545E050E08C
:1024A00023E0C8CF23E0C6CFEF92FF920F931F9394
:1024B000CF93DF937C018091C401882329F510E03C
:1024C000C0E0D0E01EC0112321F0E3DD21961150C1
:1024D00018C041DB162F13701330D9F300E0812FA1
:1024E00081DE65E070E043E069DD882311F013E0F0
:1024F00008C01F5F133009F410E00F5F033079F755
:1025000011E0CE15DF05F8F2DF91CF911F910F9109
:10251000FF90EF900895AF92BF92CF92DF92EF922B
:10252000FF920F931F93CF93DF935C016B017A01AE
:102530008091C401882309F03DC0C0E0D0E002C012
:10254000A8DD2196C50165E070E043E037DD882312
:10255000B9F384E090E05ADE02C09BDD2196C6010B
:1025600065E070E043E02ADD8823B9F3CE15DF058E
:1025700008F5C50165E070E043E020DD8E010C5FE9
:102580001F4FCE15DF05B0F484DD2196C017D107AB
:10259000C1F7C60165E070E043E010DD8E010C5F1D
:1025A0001F4FCE15DF0530F474DD2196C017D1071B
:1025B000C1F7DFCFDF91CF911F910F91FF90EF9087
:1025C000DF90CF90BF90AF900895EF92FF920F935E
:1025D0001F93CF93DF937C018B018091C4018823EB
:1025E00069F4C0E0D0E007C0C70165E070E043E0F7
:1025F000E5DC4FDD2196C017D107B0F3DF91CF9115
:102600001F910F91FF90EF9008950F931F93DF9309
:10261000CF9300D000D00F92CDB7DEB78C017A8374
:1026200069835C834B832D838091C4018823C9F423
:10263000E0914901F0914A01CE010196BE016D5F22
:102640007F4FAE014B5F5F4F099501C022DD6B816B
:102650007C81C8014D81B2DC8823C1F389819A81D4
:10266000D5DD0F900F900F900F900F90CF91DF91CD
:102670001F910F91089545E050E023E0C6CF23E07D
:10268000C4CF8091C401882311F0089502DDABDB33
:102690008823E1F70895CF93DF930E94B30789E081
:1026A00085DD85E596E19093C8018093C70180910F
:1026B000C401882329F01092C40180E00E94FC022A
:1026C000C4DB0E94AD09EC01009789F3BC016E5F89
:1026D0007F4F488140954650E091C701F091C80175
:1026E00089810995882319F789810E94650BDFCFBD
:1026F000882339F080E090E16AE070E04AE550E03C
:1027000006C080E090E16AE070E04EEB50E025DD2D
:1027100080E090E16AE070E040E050E01ECDAF92D2
:10272000BF92CF92DF92EF92FF920F931F938C0193
:102730007B016A01590188E090E062E370E045DFC7
:1027400009581E4F88E090E064E070E0A801E3DEE5
:1027500088E090E0B70139DFC601A6DEC501B1DC33
:102760001F910F91FF90EF90DF90CF90BF90AF90AF
:10277000089588E090E064E670E027DF88E090E06C
:1027800064E070E042E350E0C6DE88E090E060E99B
:1027900071E01BCF0F931F938C0183E090E091DCDD
:1027A000C80160E070E0A3DD1F910F910895DF92F2
:1027B000EF92FF920F931F93CF93DF93F42E282F66
:1027C00030E0C9018C559A4FFC01949122553A4F43
:1027D000F9018491262F30E0F901EC55FA4FD4909D
:1027E00022553A4FF901E490092F182FC0E0D0E0AC
:1027F0002AC0E11640F4FF2019F080E090E0CADF23
:102800002396115020C01E1558F4FF2019F084E0C3
:1028100090E0C0DF23961F5F1330A9F401E013C0DE
:102820000D1540F4FF2019F082E090E0B3DF23960D
:102830000F5F09C0D01638F4FF2019F086E090E051
:10284000A9DF239601500D15A1F61E1591F6CE01B4
:10285000DF91CF911F910F91FF90EF90DF9008953E
:10286000EF92FF920F931F93E82EF62E82E090E0F6
:1028700064E070E03CDD82E090E064E070E037DD31
:1028800084E090E063E070E032DD84E090E064E0BA
:1028900070E02DDD82E090E060E070E028DD84E013
:1028A00090E063E070E0E7DE84E090E063E070E0F9
:1028B000E2DEFF2011F402E301C001E310E084E056
:1028C00090E063E070E013DD1F5F1017C0F3FF209E
:1028D00019F46DE270E002C068E270E082E090E01E
:1028E00006DD84E090E063E070E001DD84E090E0EC
:1028F00063E070E0FCDC84E090E063E070E0F7DC33
:1029000084E090E063E070E0F2DCEE2031F484E0FB
:1029100090E06DE270E0AFDE18C084E090E063E02C
:1029200070E0A9DEFF2011F40CE001C00AE010E025
:1029300084E090E063E070E0DADC1F5F1017C0F322
:1029400084E090E060E070E0D2DC1F910F91FF9096
:10295000EF9008950F931F93882319F413E004E078
:1029600002C012E003E084E090E064E170E04AE03D
:1029700050E085DE80E090E060E070E0B8DC84E06C
:1029800090E0612F70E077DE82E090E0602F70E0F1
:10299000AEDC80E090E0612F70E0A9DC82E090E0A6
:1029A000602F70E0A4DC84E090E060E070E063DE23
:1029B00082E090E0602F70E09ADC82E090E0602F8F
:1029C00070E095DC82E090E060E070E090DC84E014
:1029D00090E064E170E04AE050E051DE1F910F9119
:1029E0000895FF920F931F93CF93DF93F82E8823C0
:1029F00009F458C0662311F404E001C003E084E048
:102A000090E064E170E04AE050E039DE10E0CF2D64
:102A1000D0E0219706C084E090E063E070E067DCDE
:102A20001F5F812F90E08C179D07ACF384E090E04E
:102A300060E070E05CDC84E090E063E070E01BDE6E
:102A400082E090E0602F70E052DC10E006C084E08D
:102A500090E063E070E04BDC1F5F812F90E08C170B
:102A60009D07ACF384E090E060E070E040DC84E03F
:102A700090E063E070E0FFDD82E090E0602F70E0C6
:102A800036DC82E090E0602F70E031DC82E090E0A4
:102A900060E070E02CDC84E090E064E170E04AE00B
:102AA00050E0EDDDDF91CF911F910F91FF900895E0
:102AB000EF92FF920F931F93F82E062FE42E80E0E3
:102AC00090E063E070E013DC10E006C082E090E08C
:102AD00063E070E00CDC1F5F1F15C0F380E090E046
:102AE00063E070E004DC84E090E068EC70E0C3DD5B
:102AF000EE2071F010E084E090E063E070E0F7DB3E
:102B00001F5F1431C1F780E090E063E070E0EFDB1D
:102B100082E390E07BDB82E063E070E0BFDC06C034
:102B200084E090E063E070E0E2DB01500023C1F755
:102B30001F910F91FF90EF9008951F93182F862FEC
:102B4000D7DD8AE590E0BDDA112369F184E06AE01F
:102B500070E0A4DC80E06AE070E0A0DC6091290114
:102B600070912A0184E090E04AE050E088DD86E040
:102B70006AE070E093DC6091290170912A0184E0A1
:102B800090E079DD81E090E06AE070E074DD86E05D
:102B90006AE070E083DC60912B0170912C0184E08D
:102BA00090E069DD03C082E390E08BDA1F91089525
:102BB0009F92AF92BF92CF92DF92EF92FF920F93CC
:102BC0001F93CF93DF93182F962E7A01E901D7DA5E
:102BD0005B016C0180E090E1B7014AE050E04FDD1D
:102BE000183008F017E0812F60E0492D61DF84E0A4
:102BF00090E0BE01EADC802F60E09FDF8CE291E094
:102C000060DABDDA9B01AC012A193B09C901DF91E9
:102C1000CF911F910F91FF90EF90DF90CF90BF90D9
:102C2000AF909F900895CF93DF93EA018823D1F06E
:102C3000CB0147DA80E060E070E04AE050E032DC4F
:102C40008AE090E06DE770E04AE050E018DD81E74F
:102C500092E02ADC81E0C53FD80740F0CE01845FD6
:102C6000914003C0CB0120DCCE012BDADF91CF9164
:102C7000089584E065E070E04FE050E013DC82E00E
:102C800090E06CE370E04AE050E0F9DC84E065E05D
:102C900070E04FE050E006DC60913B0170913C0138
:102CA00082E090E04AE050E0EACC5F926F927F923F
:102CB0008F929F92AF92BF92CF92DF92EF92FF924C
:102CC0000F931F93DF93CF93CDB7DEB72C970FB63B
:102CD000F894DEBF0FBECDBF182F6B01042F8139D2
:102CE000B1F1823940F48138F1F0803931F1803826
:102CF00009F075C00CC0833909F446C08339B0F1BE
:102D0000843909F450C0853909F069C05BC084E09A
:102D10000E944E0A882321F0802F0E94730BD2C795
:102D20000E94B107CDC785E00E944E0A882309F0B2
:102D3000C9C7F601848125DAC3C786E00E944E0A1E
:102D4000882309F0BFC7F601848195810CC48AE00D
:102D50000E944E0A882309F0B5C7F6016681778183
:102D60004085518584819581F8D9AAC789E00E9460
:102D70004E0A882309F0A6C7F6016581768147814E
:102D800050858481D8D99CC78AE00E944E0A882346
:102D900009F098C7F60146815781208531858481E5
:102DA0006581ADD98DC78AE00E944E0A882309F05B
:102DB00089C7F601468157812085318584816581E7
:102DC00082D97EC788E00E944E0A882309F07AC71C
:102DD000F601668177818481958171D971C780916F
:102DE0000002882309F49FC0173F88F4153F08F0BC
:102DF00055C0123F19F1133F20F4113F09F093C061
:102E000013C0133F41F1143F09F08DC036C0183F85
:102E100009F466C0183F08F455C0193F09F400C111
:102E20001A3F09F080C06DC084E0B601402F0E94B7
:102E30004E0A882309F046C724DC42C786E0B60163
:102E4000402F0E944E0A882309F03CC7F601848176
:102E50009581DCD935C78BE0B601402F0E944E0A20
:102E6000882309F02FC7F601668177814085518557
:102E7000848195812285C9DB23C78AE0B601402F72
:102E80000E944E0A882309F01DC7F60165817681EC
:102E90004781508584812185CDDA12C78BE0B60148
:102EA000402F0E944E0A882309F00CC7153F09F4F1
:102EB00081E0F60126813781008511856481458195
:102EC000E284F2C088E0B601402F0E944E0A8823B7
:102ED00009F0F8C6F601668177818481958133C651
:102EE0008AE0B601402F0E944E0A882309F0EAC604
:102EF000F6016681778140855185848195810BDB60
:102F0000DFC68BE0B601402F0E944E0A882309F0ED
:102F1000D9C6F60166817781408551858481958186
:102F20002285C4D9CDC6103FB9F488E0B601402F40
:102F30000E944E0A882309F0C5C6F6018481958156
:102F4000A681B7818D559444A247B74F09F0BCC6FE
:102F500081E080930002B4C61B3B09F4B0C21C3B65
:102F600088F5133B09F4A2C0143BC8F4123A09F4E3
:102F700064C0133A50F4103A09F452C0113A08F000
:102F8000E8C11F3909F0A0C665C0113B09F4AEC005
:102F9000123B08F0BBC0103B09F096C69AC0173B25
:102FA00009F4E4C0183B38F4153B09F4C6C0163BDD
:102FB00008F0CFC0B5C0193B09F47DC11A3B08F039
:102FC00051C21BC1133C09F460C4143C98F41F3B6C
:102FD00009F43DC3103C38F41D3B09F490C21E3B7C
:102FE00008F0C4C27AC2113C09F4B3C3123C08F021
:102FF000E5C372C3173C09F490C5183C38F4153C7E
:1030000009F4F8C4163C08F050C5B3C4193C09F4DF
:1030100002C6193C08F49AC51A3C09F055C61EC6EA
:1030200086E0B601402F0E944E0A882309F04AC666
:10303000F6018481958138DA43C686E0B601402FD7
:103040000E944E0A882309F03DC6F60184819581CD
:1030500010DE36C68CE0B601402F0E944E0A88234F
:1030600009F030C6F601F3848481958160E070E058
:103070004F2D50E020E0C9DAF601868160E070E073
:103080004F2D50E020E0D6D981E0F60167814085E0
:1030900020E030E00F2D10E0EE245ED980E0F60154
:1030A000618542852F2D30E057D90AC68CE0B601E4
:1030B000402F0E944E0A882309F004C6F60166815B
:1030C000778140855185228533858481958127DBF1
:1030D000F7C586E0B601402F0E944E0A882309F00A
:1030E000F1C5F6018481658128DDEAC589E0B60174
:1030F000402F0E944E0A882309F0E4C5F60165813D
:1031000076814781508584818EDDDAC584E0B60101
:10311000402F0E944E0A882309F0D4C52ADBD0C56F
:1031200086E0B601402F0E944E0A882309F0CAC5E6
:10313000F6018481658194DBC3C585E0B601402F2B
:103140000E944E0A882309F0BDC5F601848102DC85
:10315000B7C586E0B601402F0E944E0A882309F0C9
:10316000B1C5F601848165813CDCAAC585E0B60164
:10317000402F0E944E0A882309F0A4C5F60114814D
:1031800081E061E06DDB112399F18CE361E029DCE2
:1031900084E090E064E170E04AE050E070DA86E0BC
:1031A00090E063E070E0A3D886E090E063E070E038
:1031B0009ED886E090E063E070E099D880E090E0EF
:1031C00062E070E094D886E090E063E070E08FD831
:1031D00080E090E062E070E08AD886E090E063E012
:1031E00070E085D880E090E062E070E080D802C0B6
:1031F00081E0B0DB81E07CDA63C586E0B601402F78
:103200000E944E0A882309F05DC5F60104811581EC
:1032100081E061E025DB84E090E064E170E04AE079
:1032200050E02DDA84E090E060E070E024DA82E0A3
:1032300090E063E070E05BD882E090E063E070E0F3
:1032400056D882E090E063E070E051D884E090E0EE
:1032500060E070E010DA82E090E063E070E047D870
:1032600086E090E063E070E042D880E090E062E0C9
:1032700070E03DD882E090E060E070E038D884E013
:1032800090E064E170E04AE050E0F9D984E090E039
:1032900064E170E04AE050E0F2D986E090E063E05B
:1032A00070E025D884E090E062E070E020D880E013
:1032B00090E1B801C8C187E0B601402F0E944E0AD4
:1032C000882309F0FFC4F6010481E580F68081E0DF
:1032D00060E0C6DA84E090E064E170E04AE050E04B
:1032E000CED984E090E060E070E0C5D982E090E063
:1032F00063E070E00E94771182E090E063E070E0AC
:103300000E94771110E007C084E090E063E070E075
:103310000E9477111F5F1017B8F384E090E060E01F
:1033200070E0A9D982E090E063E070E00E9477113C
:1033300082E090E063E070E00E94771184E090E02A
:1033400064E170E04AE050E09AD980E090E1B70192
:103350007AC18BE0B601402F0E944E0A882309F003
:10336000B1C4F601B480FCE0FB1510F48CE0B82E7B
:1033700030E020E0BE016F5F7F4FAE014E5F5F4FD8
:1033800013C0F601E30FF11D95813F5FE22FF0E0DE
:10339000DB01AE0FBF1F892F8F708C93E40FF51FD9
:1033A00092959F7090832E5F2B1558F39924AA2431
:1033B000FF24F3943E010894611C711C42C0F30188
:1033C000EA0DF11D0081FE01EB0DF11D10810033AE
:1033D00008F00053103308F010530A3008F000E0F2
:1033E0001A3008F010E08F2D602F40E0E0D96C011A
:1033F0008F2D612F40E0DBD98C159D0508F4012F3E
:103400008F2D602F41E0D3D97C01009721F483E018
:1034100090E00E946110992029F080E190E060E046
:1034200070E029D984E090E060E070E024D9EC14E9
:10343000FD0418F0A394992403C0BA94992493949A
:10344000F02EAB1408F4BBCF83E090E00E94611033
:1034500080E092E063E070E00ED980E092E063E00B
:1034600070E010C288E0B601402F0E944E0A882307
:1034700009F028C4F601068117816481758181E015
:1034800090E04AE050E0FBD880E090E065E070E03A
:103490000E94771180E090E065E070E00E94771173
:1034A00082E090E065E070E00E94771180E092E0B9
:1034B00063E070E0E0D882E090E0B80144C387E0C8
:1034C000B601402F0E944E0A882309F0FBC3F60183
:1034D000848165814681ECDAF3C38BE0B601402F2D
:1034E0000E944E0A882309F0EDC3F60146815781F8
:1034F000208531858481658102855ADBE1C38CE0BA
:10350000B601402F0E944E0A882309F0DBC3F60162
:103510005480A580B68067807084818492841385EE
:10352000852D61E0A3019401012F42DB6C017C0138
:103530000DC08091C401882309F0C2C3852D60E0CD
:10354000A3019401012F34DBE80EF91EC7018C0D95
:103550009D1DA816B90668F7EA14FB0408F0B0C36D
:10356000C5018E199F090E946110AAC384E0B601AB
:10357000402F0E944E0A882309F0A4C382E090E005
:1035800063E070E00E94771182E090E063E070E019
:103590000E94771182E090E063E070E00E94771172
:1035A00082E090E063E070E00E94771182E090E0BA
:1035B00063E070E00E94771182E090E063E070E0E9
:1035C0000E94771184E090E063E070E00E94771140
:1035D00084E090E063E070E00E94771186E090E084
:1035E00060E070E00E94771184E090E064E170E0B8
:1035F0004AE050E044D882E090E063E070E00E944E
:10360000771182E090E063E070E00E94771182E041
:1036100090E063E070E00E94771182E090E063E068
:1036200070E00E94771182E090E063E070E00E9419
:10363000771182E090E060E070E00E94771184E012
:1036400090E064E170E04AE050E019D839C384E0CA
:10365000B601402F0E944E0A882309F033C310E0C0
:1036600084E090E063E070E00E9477111F5F1D30FE
:10367000B9F784E090E060E070E00E94771184E0A8
:1036800090E068E270E04AE050E00E943F1386E07C
:1036900090E060E070E00E94771184E090E068E2E2
:1036A00070E04AE050E00E943F1380E090E060E06C
:1036B00070E00E94771184E090E063E070E00E9487
:1036C0003B1310E084E090E063E070E00E9477112B
:1036D0001F5F1D30B9F76BC085E0B601402F0E9417
:1036E0004E0A882309F0EEC2F601148184E090E0CE
:1036F0006CE070E00E943B1384E090E068E070E0D2
:103700000E943B1386E090E063E070E00E94771136
:1037100086E090E063E070E00E94771186E090E040
:1037200063E070E00E947711112331F086E090E0B1
:1037300063E070E00E94771110E084E090E063E0C5
:1037400070E00E9477111F5F1C33B9F784E090E0AE
:1037500067C084E0B601402F0E944E0A882309F01A
:10376000B1C210E080E090E063E070E00E94771169
:103770001F5F1D30B9F780E090E060E070E00E94CC
:10378000771184E090E06AE070E00E943B1384E0EF
:1037900090E06FE070E00E943B1310E084E090E066
:1037A00063E070E00E9477111F5F1A30B9F784E080
:1037B00090E060E070E00E94771182C285E0B6017F
:1037C000402F0E944E0A882309F07CC2F601148122
:1037D00084E090E06FE070E00E943B1384E090E0B2
:1037E00065E070E00E943B13112331F086E090E029
:1037F00063E070E00E94771186E090E063E070E0A3
:103800000E94771186E090E063E070E00E947711FB
:1038100086E090E063E070E00E94771180E090E045
:1038200060E070E00E94771184E090E062E070E078
:103830000E943B1382E090E063E070E00E94771109
:1038400082E090E063E070E00E94771182E090E017
:1038500060E070E00E94771184E090E063E070E047
:103860000E943B1382E090E063E070E00E947711D9
:1038700082E090E062E070E00E94771184E090E0E6
:103880006CE070E00E943B131BC285E0B601402F44
:103890000E944E0A882309F015C2F60184818F31F7
:1038A00098F584E090E06FE070E00E943B1384E0C4
:1038B00090E065E070E00E943B1386E090E063E0FA
:1038C00070E00E94771186E090E063E070E00E9473
:1038D000771186E090E063E070E00E94771186E067
:1038E00090E063E070E00E94771180E090E060E09B
:1038F00070E00E94771184E090E068E070E00E9440
:103900003B1380E090E0CCC084E090E06CE070E09D
:103910000E943B1384E090E068E070E00E943B135B
:1039200086E090E063E070E00E94771186E090E02E
:1039300063E070E00E94771186E090E063E070E061
:103940000E94771180E090E063E070E00E947711C0
:1039500086E090E063E070E00E94771180E090E004
:1039600060E070E00E94771184E090E063E070E036
:103970005FCF84E0B601402F0E944E0A882309F0F1
:10398000A1C184E090E06CE070E00E943B1384E011
:1039900090E068E070E00E943B1386E090E063E016
:1039A00070E00E94771186E090E063E070E00E9492
:1039B000771186E090E063E070E00E94771180E08C
:1039C00090E063E070E00E94771186E090E063E0B1
:1039D00070E00E94771180E090E063E070E00E9468
:1039E000771186E090E063E070E00E94771180E05C
:1039F00090E04AC084E0B601402F0E944E0A88231E
:103A000009F060C184E090E06CE070E00E943B133C
:103A100084E090E068E070E00E943B1386E090E074
:103A200063E070E00E94771186E090E063E070E070
:103A30000E94771186E090E063E070E00E947711C9
:103A400080E090E063E070E00E94771186E090E013
:103A500063E070E00E94771180E090E063E070E046
:103A60000E94771186E090E063E070E00E94771199
:103A70001CE384E090E063E070E00E947711115055
:103A80001130B9F784E090E060E070E00E947711B7
:103A900084E090E062E070E00E943B1382E090E0FE
:103AA00063E070E00E947711C5CE84E0B601402F3C
:103AB0000E944E0A882309F005C181E06FEF4FEFA5
:103AC00022E330E00E94EE1181E06FEF40EA20E057
:103AD00030E00EEF11E00E94F81184E090E06AEA15
:103AE00070E00E943B1384E090E06AEA70E00E947C
:103AF0003B1384E090E06AEA70E00E943B1381E0AF
:103B000060E040E822E330E006E811E00E94F811AE
:103B100082E090E066E871E0C3C086E0B601402F25
:103B20000E944E0A882309F0CDC0F601E480F5809A
:103B300081E06FEF40E820E030E087010E94F8115B
:103B400082E090E0B7010E94E512BAC086E0B601BB
:103B5000402F0E944E0A882309F0B4C0F601C480A9
:103B6000D580EE24FF2452C081E060E84FEF20E0D2
:103B700030E000E210E00E94F81184E090E060E1A3
:103B800070E00E943B1384E090E060E170E00E94EE
:103B90003B1381E06FEF40E820E030E00E94F81135
:103BA00084E090E060E170E00E943B1384E090E0EC
:103BB00060E170E00E943B1381E060E840E020E0BB
:103BC00030E00E94F81184E090E060E170E00E9433
:103BD0003B1384E090E060E170E00E943B1381E0E1
:103BE00060E040E820E030E00E94F81184E090E0DE
:103BF00060E170E00E943B1384E090E060E170E0DF
:103C00000E943B1380E890E0E80EF91EEC14FD04DE
:103C100008F4AACF55C084E0B601402F0E944E0A96
:103C2000882309F04FC081E06FEF40E924E630E0DF
:103C30000AEF10E00E94F81184E090E064E670E082
:103C40000E943B1384E090E062E370E00E943B132B
:103C500081E06FEF4FEF22E330E030C084E0B60147
:103C6000402F0E944E0A882369F581E060E84FEFFB
:103C70002EE130E00E94EE1181E06FEF40E924E098
:103C800031E00E94EE1181E060E040E822E330E0A4
:103C900000E911E00E94F81182E090E060E971E033
:103CA0000E94E51281E060EC40E028E730E00E94ED
:103CB000EE1181E06FEF40E028E730E00E94EE1166
:103CC0000E94C80981E001C080E02C960FB6F894EC
:103CD000DEBF0FBECDBFCF91DF911F910F91FF903F
:103CE000EF90DF90CF90BF90AF909F908F907F909C
:103CF0006F905F900895A1E21A2EAA1BBB1BFD01D5
:103D00000DC0AA1FBB1FEE1FFF1FA217B307E407BA
:103D1000F50720F0A21BB30BE40BF50B661F771F12
:103D2000881F991F1A9469F76095709580959095F2
:103D30009B01AC01BD01CF010895FB01DC0102C074
:103D400005900D9241505040D8F70895FB01DC01D9
:103D500002C001900D9241505040D8F70895F89458
:023D6000FFCF93
:103D6200012003E8037800FA0064007D007701C8AF
:103D720000FA007701FA00C40977015F057D00713E
:103D820002500077016E007701F4017701E45714C5
:103D92000050005A002C012C01FA00FA0001000028
:103DA2000001000000381EE797F60D000008808031
:043DB200808000000D
:00000001FF
